{
  "type": "fullscreen",
  "campaign": "branch_snapchat_photo_A",
  
  "message": {
    "en": "Swipe up ⬆️, if you are my drinking buddy!",
    "de": "Swipe hoch ⬆️, wenn Du mein Trink-Kumpane bist!",
    "it": "Scorri verso l'alto ⬆️, se sarai tu il mio compagno di bevute!",
    "es": "¡Desliza hacia arriba si eres mi compañero de copas!",
    "pt": "Arraste para cima se for o meu amigo de bebidas!",
    "fr": "Balayez vers le haut, si vous êtes mon copain de beuverie!",
    "nl": "Veeg naar boven als je mijn drinkvriend bent!",
    "no": "Sveip opp, hvis du er min drikkekompis!",
    "fi": "Sipaise ylös, jos olet juomakaverini!",
    "se": "Svep uppåt om du är min dryckeskompis!",
    "pl": "Swipe up jeżeli jesteś jednym ze znajomych do picia!"
  },
  "cta": {
    "en": " "  },
  "backgroundColor": "#000000ff",
  "messageColor": "#ffffffff",
  "ctaColor": "#ffffffff",

  "ogTitle": {
    "en": "➡️ Click Here AGAIN If You Are My Drinking Buddy!",
    "de": "➡️ Klicke Hier NOCHMAL Wenn Du Mein Saufkumpane Bist!",
    "nl": "➡️ Klik hier als je mijn drinkende vriend bent!",
    "fr": "➡️ Clique ici si tu es mon compagnon de beuverie !",
    "pt": "➡️ Clica Aqui Se És o Meu Amigo Bebedor!",
    "es": "➡️ Haz clic aquí si eres mi compañero de copas!",
    "it": "➡️ Clicca qui se sei il mio compagno di bevute!",
    "no": "➡️ Klikk her hvis du er min drikkekamerat!",
    "fi": "➡️ Napsauta tätä, jos olet juomakaverini!",
    "se": "➡️ Klicka här om du är min drickande kompis!",
    "pl": "➡️ Kliknij tutaj, jeśli jesteś moim pijącym kumplem!"
  },
  "ogDescription": {
    "en": ""
  },
  "branchTitle": {
    "en": "Click Here If You Are My Drinking Buddy!",
    "de": "Klicke Hier Wenn Du Mein Saufkumpane Bist!",
    "nl": "Klik hier als je mijn drinkende vriend bent!",
    "fr": "Clique ici si tu es mon compagnon de beuverie !",
    "pt": "Clica Aqui Se És o Meu Amigo Bebedor!",
    "es": "Haz clic aquí si eres mi compañero de copas!",
    "it": "Clicca qui se sei il mio compagno di bevute!",
    "no": "Klikk her hvis du er min drikkekamerat!",
    "fi": "Napsauta tätä, jos olet juomakaverini!",
    "se": "Klicka här om du är min drickande kompis!",
    "pl": "Kliknij tutaj, jeśli jesteś moim pijącym kumplem!"
  },
  "branchDesc": {
    "en": "Get the new Beer Buddy App now.",
    "de": "Hol dir jetzt auch die neue Beer Buddy App.",
    "nl": "Haal nu de nieuwe Beer Buddy App!",
    "fr": "Prends la nouvelle application Beer Buddy maintenant !",
    "pt": "Compra o novo Beer Buddy App agora!",
    "es": "Consigue la nueva aplicación Beer Buddy ahora!",
    "it": "Prendi la nuova Beer Buddy App ora!",
    "no": "Få den nye Beer Buddy-appen nå!",
    "fi": "Hanki uusi Beer Buddy -sovellus nyt!",
    "se": "Skaffa den nya Beer Buddy-appen nu!",
    "pl": "Pobierz nową aplikację Beer Buddy App teraz!"
  },
  "branchCta": {
    "en": "Accept Request",
    "de": "Anfrage annehmen",
    "nl": "Accepteer verzoek",
    "fr": "Accepter la demande",
    "pt": "Aceitar Pedido",
    "es": "Aceptar la solicitud",
    "it": "Accetta la richiesta",
    "no": "Aksepter forespørsel",
    "fi": "Hyväksy pyyntö",
    "se": "Acceptera förfrågan",
    "pl": "Zaakceptuj wniosek"
  },
  "htmlTitle": {
    "en": "Add me as friend at Beer Buddy",
    "de": "Füge mich als Freund bei Beer Buddy hinzu",
    "nl": "Voeg mij toe als vriend bij Beer Buddy",
    "fr": "Ajoutez-moi comme ami à Beer Buddy",
    "pt": "Adiciona-me como amigo no Beer Buddy",
    "es": "Añádeme como amigo en Beer Buddy",
    "it": "Aggiungimi come amico al Beer Buddy",
    "no": "Legg meg til som venn hos Beer Buddy",
    "fi": "Lisää minut ystäväksi Beer Buddyö",
    "se": "Lägg till mig som vän på Beer Buddy",
    "pl": "Dodaj mnie jako przyjaciela w Beer Buddy"
  },
  "versionTwo": {
    "width": 360,
    "height": 640,
    "backgroundImageUrl": "[custom]",
  "messageLabelBounds": [
    [
      15,
      564
    ],
    [
      330,
      61
    ]
  ],
    "ctaLabelBounds": [
      [
        15,
        15
      ],
      [
        330,
        61
      ]
    ]
  }
}