{
   "target":"shareSheet",
   "campaign":"branch_share_force",
   "alertTitle": {
      "en": "How many friends do you have?"
   },
   "alertMessage": {
      "en": "Add your friends by sharing your invite link."
   },
   "alertCta": {
      "en": "Ok"
   },
   "alertClose": {
      "en": "Later"
   },
   
   "shareText":{
   
      "en":"I want to add you at SP👀TTED: [link]"
   },
   "ogTitle":{
      "en":"Tap HERE If You A FRIEND Of [username]! 👀"
   },
   "ogDescription":{
      "en":"SP👀TTED is new app to get notified when your friends are hanging out. Spot friends in real life and notify your buddies about your location."
   },
   "branchTitle":{
      "en":"Do you accept my friendship request?"
   },
   "branchDesc ":{
      "en":"Get SP👀TTED app to accept this friend request."
   },
   "branchCta":{
      "en":"Accept Request"
      
   },
   "htmlTitle":{
      "en":"Tap HERE If You Are My Friend! 👀"
   },
   "ogImage":"https://firebasestorage.googleapis.com/v0/b/spoot-sky.appspot.com/o/logo4.png?alt=media&token=c6bbdf31-20ef-48e3-8f78-af6a133b4ef2"
}