{
  "target": "shareSheet",
  "campaign": "branch_group_feed_invite",
  
  "shareText": {
      "de": "Tritt der Gruppe \"[groupname]\" bei Beer Buddy bei.\n\nDies ist eine soziale Anwendung, die alle in der Gruppe benachrichtigt, sobald einer von uns sich Einen trinkt. So kann jeder von uns dazu stoßen und wir treffen uns öfter im echten Leben.\n\n[link]",
      "nl": "Word lid van de groep \"[groupname]\" op Bierbuddy.\n\nDit is een sociale app die iedereen in de groep verwittigt als iemand van ons iets drinkt. Op die manier kan ieder van ons meedoen en zullen we elkaar vaker in het echt ontmoeten.\n\n[link]",
      "fr": "Rejoins le groupe \"[groupname]\" sur Beer Buddy.\n\nIl s'agit d'une application sociale qui avertit tous les membres du groupe lorsque l'un d'entre nous prend un verre. Ainsi, n'importe lequel d'entre nous peut s'inscrire et nous nous retrouverons plus souvent dans la vie réelle.\n\n[link]",
      "pl": "Dołącz do grupy \"[groupname]\" na Beer Buddy.\n\nJest to aplikacja społecznościowa, która powiadamia wszystkich w grupie, gdy ktoś z nas pije drinka. W ten sposób każdy z nas może się przyłączyć i będziemy się częściej spotykać w realu.\n\n[link]",
      "es": "Únete al grupo \"[groupname]\" en Beer Buddy.\n\nSe trata de una aplicación social que notifica a todos los miembros del grupo cuando uno de ellos está tomando una copa. Así, cualquiera de nosotros puede unirse y nos encontraremos más a menudo en la vida real.\n\n[link]",
      "pt": "Junte-se ao grupo \"[groupname]\" no Beer Buddy.\n\nEste é um aplicativo social que notifica a todos no grupo quando um de nós está tomando uma bebida. Dessa forma, qualquer um de nós pode participar e nos encontraremos mais vezes na vida real.\n\n[link]",
      "it": "Unisciti al gruppo \"[groupname]\" su Beer Buddy.\n\nQuesta è un'applicazione sociale che avvisa tutti nel gruppo quando uno di noi sta bevendo un drink. In questo modo, chiunque di noi può unirsi e ci incontreremo più spesso nella vita reale.\n\n[link]",
      "en": "Join the group \"[groupname]\" at Beer Buddy.\n\nThis is a social app that notifies everyone in the group when one of us is having a drink. That way, any of us can join and we'll meet up more often in real life.\n\n[link]",
      "no": "Bli med i gruppen \"[groupname]\" på Beer Buddy.\n\nDette er en sosial applikasjon som varsler alle i gruppen så snart en av oss tar en drink. Så hver av oss kan bli med, og vi møtes oftere i det virkelige liv.\n\n[link]",
      "fi": "Liity ryhmään \"[groupname]\" Beer Buddy.\n\nTämä on sosiaalinen sovellus, joka ilmoittaa kaikille ryhmän jäsenille heti, kun joku meistä on juonut. Joten jokainen meistä voi liittyä ja tapaamme useammin tosielämässä.\n\n[link]",
      "se": "Gå med i gruppen \"[groupname]\" på Beer Buddy.\n\nDetta är en social applikation som meddelar alla i gruppen så snart en av oss tar en drink. Så var och en av oss kan gå med och vi träffas oftare i verkligheten.\n\n[link]"
    },
      "ogTitle": {
        "en": "➡️ You have been invited to group \"[groupname]\". Click here now and join the group!",
        "nl": "➡️ Je bent uitgenodigd in de groep \"[groupname]\". Klik nu hier en word lid van de groep!",
        "fr": "➡️ Tu as été invité(e) dans le groupe \"[groupname]\". Clique ici maintenant et rejoins le groupe !",
        "pl": "➡️ Zostałeś zaproszony do grupy \"[groupname]\". Kliknij tutaj teraz i dołącz do grupy!",
        "es": "➡️ Has sido invitado al grupo \"[groupname]\". ¡Haga clic aquí ahora y únase al grupo!",
        "pt": "➡️ Você foi convidado para o grupo \"[groupname]\". Clique aqui agora e junte-se ao grupo!",
        "it": "➡️ Sei stato invitato al gruppo \"[groupname]\". Clicca qui ora e unisciti al gruppo!",
        "de": "➡️ Du wurdest in die Gruppe \"[groupname]\" eingeladen. Klicke jetzt hier und trete der Gruppe bei!",
        "no": "➡️ Du er invitert til gruppen \"[groupname]\". Klikk her nå og bli med i gruppen!",
        "fi": "➡️ Sinut on kutsuttu ryhmään \"[groupname]\". Napsauta tätä nyt ja liity ryhmään!",
        "se": "➡️ Du har bjudits in till gruppen \"[groupname]\". Klicka här nu och gå med i gruppen!"
      },
      "ogDescription": {
        "en": "[username] invites you to join the group \"[groupname]\" at Beer Buddy. With this app we can see when and where one of us is having a drink.",
        "nl": "[username] nodigt je uit om je aan te sluiten bij de groep \"[groupname]\" op Beer Buddy. Met deze app kunnen we zien wanneer en waar een van ons aan het drinken is.",
        "fr": "[username] t'invite à rejoindre le groupe \"[groupname]\" sur Beer Buddy. Avec cette application, nous pouvons voir quand et où l'un de nous boit un verre.",
        "pl": "[username] zaprasza do dołączenia do grupy \"[groupname]\" na Beer Buddy. Dzięki tej aplikacji możemy zobaczyć, kiedy i gdzie ktoś z nas pije drinka.",
        "es": "[username] te invita a unirte al grupo \"[groupname]\" en Beer Buddy. Con esta aplicación podemos ver cuándo y dónde está uno de nosotros tomando una copa.",
        "pt": "[username] convida você a se juntar ao grupo \"[groupname]\" no Beer Buddy. Com este aplicativo nós podemos ver quando e onde um de nós está tomando uma bebida.",
        "it": "[username] ti invita ad unirti al gruppo \"[groupname]\" su Beer Buddy. Con questa applicazione possiamo vedere quando e dove uno di noi sta bevendo.",
        "de": "[username] lädt dich ein, der Gruppe \"[groupname]\" bei Beer Buddy beizutreten. Mit dieser App können wir sehen, wann und wo einer von uns sich Einen trinkt.",
        "no": "[username] inviterer deg til å bli med i gruppen \"[groupname]\" på Beer Buddy. Med denne appen kan vi se når og hvor en av oss tar en drink.",
        "fi": "[username] kutsuu sinut liittymään ryhmään \"[groupname]\" Beer Buddy. Tämän sovelluksen avulla voimme nähdä milloin ja missä joku meistä juo.",
        "se": "[username] inbjuder dig att gå med i gruppen \"[groupname]\" på Beer Buddy. Med den här appen kan vi se när och var en av oss tar en drink."
      },
      "branchTitle": {
        "en": "Do you want to join group \"[groupname]\" at Beer Buddy?",
        "nl": "Wil je lid worden van groep \"[groupname]\" bij Beer Buddy?",
        "fr": "Veux-tu rejoindre le groupe \"[groupname]\" sur Beer Buddy ?",
        "pl": "Czy chcesz dołączyć do grupy \"[groupname]\" w Beer Buddy?",
        "es": "¿Quieres unirte al grupo \"[groupname]\" en Beer Buddy?",
        "pt": "Você quer se juntar ao grupo \"[groupname]\" no Beer Buddy?",
        "it": "Vuoi unirti al gruppo \"[groupname]\" su Beer Buddy?",
        "de": "Willst du der Gruppe \"[groupname]\" bei Beer Buddy beitreten?",
        "no": "Vil du bli med i gruppen \"[groupname]\" på Beer Buddy?",
        "fi": "Haluatko liittyä Beer Buddy -ryhmään \"[groupname]\"?",
        "se": "Vill du gå med i gruppen \"[groupname]\" på Beer Buddy?"
      },
      "branchDesc ": {
        "en": "Get Beer Buddy To accept this group invite.",
        "nl": "Get Beer Buddy Om deze groepsuitnodiging te accepteren.",
        "fr": "Get Beer Buddy Pour accepter cette invitation de groupe.",
        "pl": "Get Beer Buddy Aby zaakceptować zaproszenie do grupy.",
        "es": "Conseguir Beer Buddy Para aceptar esta invitación de grupo.",
        "pt": "Peça ao Beer Buddy para aceitar este convite do grupo.",
        "it": "Get Beer Buddy Per accettare questo invito di gruppo.",
        "de": "Get Beer Buddy Um diese Gruppeneinladung anzunehmen.",
        "no": "Skaff deg Beer Buddy For å godta denne gruppeinvitasjonen.",
        "fi": "Get Beer Buddy Hyväksy tämä ryhmäkutsu.",
        "se": "Skaffa Beer Buddy Att acceptera denna gruppinbjudan."
      },
      "branchCta": {
        "en": "Join Group",
        "nl": "Word lid van de groep",
        "fr": "Rejoins le groupe",
        "pl": "Dołącz do Grupy",
        "es": "Unirse al grupo",
        "pt": "Junte-se ao Grupo",
        "it": "Unisciti al gruppo",
        "de": "Gruppe beitreten",
        "no": "Bli med i gruppe",
        "fi": "Liittyä ryhmään",
        "se": "Gå med i grupp"
      },
      "htmlTitle": {
        "en": "➡️ Click Here To Join Group \"[groupname]\"",
        "nl": "➡️ Klik hier om lid te worden van groep \"[groupname]\"",
        "fr": "➡️ Cliquez ici pour rejoindre le groupe \"[groupname]\".",
        "pl": "➡️ Click Here To Join Group \"[groupname]\"",
        "es": "➡️ Haga clic aquí para unirse al grupo \"[groupname]\"",
        "pt": "➡️ Clique aqui para se juntar ao Grupo \"[groupname]",
        "it": "➡️ Clicca qui per unirti al gruppo \"[groupname]\"",
        "de": "➡️ Klicke hier um der Gruppe \"[groupname]\" beizutreten",
        "no": "➡️ Klikk her for å bli med i gruppen \"[groupname]\"",
        "fi": "➡️ Napsauta tätä liittyäksesi ryhmään \"[groupname]\"",
        "se": "➡️ Klicka här för att gå med i gruppen \"[groupname]\""
      },
      "alertTitle": {
        "en": "Invite drinking buddies to your new group now!",
        "nl": "Nodig nu drinkmaatjes uit voor je nieuwe groep!",
        "fr": "Invite tes copains de beuverie à ton nouveau groupe maintenant !",
        "pl": "Zaproś kumpli do picia do swojej nowej grupy już teraz!",
        "es": "Invita ahora a tus compañeros de bebida a tu nuevo grupo.",
        "pt": "Convide amigos para o seu novo grupo agora!",
        "it": "Invita i compagni di bevute al tuo nuovo gruppo ora!",
        "de": "Lade jetzt deine Trinkfreunde zu deiner neuen Gruppe ein!",
        "no": "Inviter drikkekamerater til den nye gruppen din nå!",
        "fi": "Kutsu juomakaverisi uuteen ryhmään nyt!",
        "se": "Bjud in drinkkompisar till din nya grupp nu!"
      },
      "alertMessage": {
        "en": "Select which of your contacts belong to your group.",
        "nl": "Kies welke van je contacten tot je groep behoren.",
        "fr": "Sélectionne les contacts qui appartiennent à ton groupe.",
        "pl": "Wybierz, które z Twoich kontaktów należą do Twojej grupy.",
        "es": "Selecciona cuáles de tus contactos pertenecen a tu grupo.",
        "pt": "Selecione qual dos seus contatos pertence ao seu grupo.",
        "it": "Seleziona quali dei tuoi contatti appartengono al tuo gruppo.",
        "de": "Wähle aus, welche deiner Kontakte zu deiner Gruppe gehören.",
        "no": "Velg hvilke av kontaktene dine som tilhører gruppen din.",
        "fi": "Valitse, mitkä yhteystiedoistasi kuuluvat ryhmääsi.",
        "se": "Välj vilka av dina kontakter som tillhör din grupp."
      },
      "alertCTA": {
        "en": "OK",
        "nl": "OK",
        "fr": "OK",
        "pl": "OK",
        "es": "OK",
        "pt": "OK",
        "it": "OK",
        "de": "OK",
        "no": "OK",
        "fi": "OK",
        "se": "OK"
      },
      "alertCancel": {
        "en": "Later",
        "nl": "Later",
        "fr": "Plus tard",
        "pl": "Później",
        "es": "Más tarde",
        "pt": "Mais tarde",
        "it": "Più tardi",
        "de": "Später",
        "no": "Seinere",
        "fi": "Myöhemmin",
        "se": "Senare"
      },
  
  "ogImage": "https://firebasestorage.googleapis.com/v0/b/beer-buddy-6323b.appspot.com/o/splashscreen%2Fclinking-beer-mugs.png?alt=media&token=61b95c16-049b-4da6-8607-72497cfab901"
  }