{
  "target": "snapchat",
  "campaign": "branch_group_force_invite_B",
  "shareText": {
    "en": "Open this link to join my Beer Buddy Group: [link]",
    "nl": "Open deze link om lid te worden van mijn Biervriendengroep: [link]",
    "fr": "Ouvre ce lien pour rejoindre mon groupe de copains de bière : [link]",
    "pl": "Otwórz ten link, aby dołączyć do mojej grupy Beer Buddy: [link]",
    "es": "Abre este enlace para unirte a mi grupo de amigos de la cerveza: [link]",
    "pt": "Abra este link para se juntar ao meu Grupo Beer Buddy: [link]",
    "it": "Apri questo link per unirti al mio gruppo di amici della birra: [link]",
    "de": "Öffne diesen Link, um meiner Beer Buddy Gruppe beizutreten: [link]",
    "no": "Åpne denne lenken for å bli med i Beer Buddy Group: [link]",
    "fi": "Avaa tämä linkki liittyäksesi Beer Buddy Group -ryhmääni: [link]",
    "se": "Öppna denna länk för att gå med i min Beer Buddy Group: [link]"
  },
  "ogTitle": {
    "en": "Swipe up to join the group \"[groupname]\"!",
        "nl": "Swipe omhoog om je bij de groep \"[groupname]\" aan te sluiten!",
        "fr": "Glisse vers le haut pour rejoindre le groupe \"[groupname]\" !",
        "pl": "Przesuń palcem w górę, aby dołączyć do grupy \"[groupname]\"!",
        "es": "Desliza el dedo hacia arriba para unirte al grupo \"[groupname]\".",
        "pt": "Vá para cima para se juntar ao grupo \"[groupname]\"!",
        "it": "Scorri verso l'alto per unirti al gruppo \"[groupname]\"!",
        "de": "Wische nach oben, um der Gruppe \"[groupname]\" beizutreten!",
        "no": "Sveip opp for å bli med i gruppen \"[groupname]\"!",
        "fi": "Pyyhi ylös liittyäksesi [groupname]-ryhmään!",
        "se": "Svep uppåt för att gå med i gruppen \"[groupname]\"!"
        },
  "ogDescription": {
    "en": "[username] invites you to join the group \"[groupname]\" at Beer Buddy. With this app we can see when and where one of us is having a drink.",
    "nl": "[username] nodigt je uit om je aan te sluiten bij de groep \"[groupname]\" op Beer Buddy. Met deze app kunnen we zien wanneer en waar een van ons aan het drinken is.",
    "fr": "[username] t'invite à rejoindre le groupe \"[groupname]\" sur Beer Buddy. Avec cette application, nous pouvons voir quand et où l'un de nous boit un verre.",
    "pl": "[username] zaprasza do dołączenia do grupy \"[groupname]\" na Beer Buddy. Dzięki tej aplikacji możemy zobaczyć, kiedy i gdzie ktoś z nas pije drinka.",
    "es": "[username] te invita a unirte al grupo \"[groupname]\" en Beer Buddy. Con esta aplicación podemos ver cuándo y dónde está uno de nosotros tomando una copa.",
    "pt": "[username] convida você a se juntar ao grupo \"[groupname]\" no Beer Buddy. Com este aplicativo nós podemos ver quando e onde um de nós está tomando uma bebida.",
    "it": "[username] ti invita ad unirti al gruppo \"[groupname]\" su Beer Buddy. Con questa applicazione possiamo vedere quando e dove uno di noi sta bevendo.",
    "de": "[username] lädt dich ein, der Gruppe \"[groupname]\" bei Beer Buddy beizutreten. Mit dieser App können wir sehen, wann und wo einer von uns sich Einen trinkt.",
    "no": "[username] inviterer deg til å bli med i gruppen \"[groupname]\" på Beer Buddy. Med denne appen kan vi se når og hvor en av oss tar en drink.",
    "fi": "[username] kutsuu sinut liittymään ryhmään \"[groupname]\" Beer Buddy. Tämän sovelluksen avulla voimme nähdä milloin ja missä joku meistä juo.",
    "se": "[username] inbjuder dig att gå med i gruppen \"[groupname]\" på Beer Buddy. Med den här appen kan vi se när och var en av oss tar en drink."
  },
  "branchTitle": {
    "en": "Do you want to join group \"[groupname]\" at Beer Buddy?",
    "nl": "Wil je lid worden van groep \"[groupname]\" bij Beer Buddy?",
    "fr": "Veux-tu rejoindre le groupe \"[groupname]\" sur Beer Buddy ?",
    "pl": "Czy chcesz dołączyć do grupy \"[groupname]\" w Beer Buddy?",
    "es": "¿Quieres unirte al grupo \"[groupname]\" en Beer Buddy?",
    "pt": "Você quer se juntar ao grupo \"[groupname]\" no Beer Buddy?",
    "it": "Vuoi unirti al gruppo \"[groupname]\" su Beer Buddy?",
    "de": "Willst du der Gruppe \"[groupname]\" bei Beer Buddy beitreten?",
    "no": "Vil du bli med i gruppen \"[groupname]\" på Beer Buddy?",
    "fi": "Haluatko liittyä Beer Buddy -ryhmään \"[groupname]\"?",
    "se": "Vill du gå med i gruppen \"[groupname]\" på Beer Buddy?"
  },
  "branchDesc ": {
    "en": "Get Beer Buddy To accept this group invite.",
    "nl": "Get Beer Buddy Om deze groepsuitnodiging te accepteren.",
    "fr": "Get Beer Buddy Pour accepter cette invitation de groupe.",
    "pl": "Get Beer Buddy Aby zaakceptować zaproszenie do grupy.",
    "es": "Conseguir Beer Buddy Para aceptar esta invitación de grupo.",
    "pt": "Peça ao Beer Buddy para aceitar este convite do grupo.",
    "it": "Get Beer Buddy Per accettare questo invito di gruppo.",
    "de": "Get Beer Buddy Um diese Gruppeneinladung anzunehmen.",
    "no": "Skaff deg Beer Buddy For å godta denne gruppeinvitasjonen.",
    "fi": "Get Beer Buddy Hyväksy tämä ryhmäkutsu.",
    "se": "Skaffa Beer Buddy Att acceptera denna gruppinbjudan."
  },
  "branchCta": {
    "en": "Join Group",
    "nl": "Word lid van de groep",
    "fr": "Rejoins le groupe",
    "pl": "Dołącz do Grupy",
    "es": "Unirse al grupo",
    "pt": "Junte-se ao Grupo",
    "it": "Unisciti al gruppo",
    "de": "Gruppe beitreten",
    "no": "Bli med i gruppe",
    "fi": "Liittyä ryhmään",
    "se": "Gå med i grupp"
  },
  "htmlTitle": {
    "en": "➡️ Click Here To Join Group \"[groupname]\"",
    "nl": "➡️ Klik hier om lid te worden van groep \"[groupname]\"",
    "fr": "➡️ Cliquez ici pour rejoindre le groupe \"[groupname]\".",
    "pl": "➡️ Click Here To Join Group \"[groupname]\"",
    "es": "➡️ Haga clic aquí para unirse al grupo \"[groupname]\"",
    "pt": "➡️ Clique aqui para se juntar ao Grupo \"[groupname]",
    "it": "➡️ Clicca qui per unirti al gruppo \"[groupname]\"",
    "de": "➡️ Klicke hier um der Gruppe \"[groupname]\" beizutreten",
    "no": "➡️ Klikk her for å bli med i gruppen \"[groupname]\"",
    "fi": "➡️ Napsauta tätä liittyäksesi ryhmään \"[groupname]\"",
    "se": "➡️ Klicka här för att gå med i gruppen \"[groupname]\""
  },
  "alertTitle": {
    "se": "Nästa steg: lägg till dina dricksvänner!",
    "no": "Neste trinn: legg til dine drikkekamerater!",
    "fi": "Seuraava vaihe: lisää juomakaverisi!",
    "de": "Nächster Schritt: Füge deine Trinkkumpanen hinzu!",
    "fr": "Prochaine étape : Ajoute tes compagnons de beuverie !",
    "pl": "Następny krok: Dodaj swoich kumpli od picia!",
    "nl": "Volgende stap: Voeg je drinkmaatjes toe!",
    "pt": "Próximo passo: Adicione seus companheiros de bebedeiras!",
    "es": "El siguiente paso: ¡Añade a tus compañeros de bebida!",
    "it": "Prossimo passo: Aggiungi i tuoi compagni di bevute!",
    "en": "Next step: Add your drinking buddies!"
  },
  "alertMessage": {
    "se": "Lägg till dina vänner genom att dela en inbjudan i din Snapchat-berättelse.",
    "no": "Legg til vennene dine ved å dele en invitasjon på Snapchat-historien din.",
    "fi": "Lisää ystäväsi jakamalla kutsu Snapchat-tarinasi.",
    "de": "Füge deine Freunde hinzu, indem du eine Einladung in deiner Snapchat Story teilst.",
    "fr": "Ajoute tes amis en partageant une invitation dans ton histoire de Snapchat.",
    "pl": "Dodaj swoich przyjaciół, dzieląc się zaproszeniem w swojej Snapchat Story.",
    "nl": "Voeg je vrienden toe door een uitnodiging te delen in je Snapchat Story.",
    "pt": "Adicione seus amigos compartilhando um convite em sua História do Snapchat.",
    "es": "Añade a tus amigos compartiendo una invitación en tu historia de Snapchat.",
    "it": "Aggiungi i tuoi amici condividendo un invito nella tua Snapchat Story.",
    "en": "Add your friends by sharing an invite in your Snapchat Story."
    },
  "alertCTA": {
    "en": "OK",
    "nl": "OK",
    "fr": "OK",
    "pl": "OK",
    "es": "OK",
    "pt": "OK",
    "it": "OK",
    "de": "OK",
    "no": "OK",
    "fi": "OK",
    "se": "OK"
  },
  "alertCancel": {
    "en": "Later",
    "nl": "Later",
    "fr": "Plus tard",
    "pl": "Później",
    "es": "Más tarde",
    "pt": "Mais tarde",
    "it": "Più tardi",
    "de": "Später",
    "no": "Seinere",
    "fi": "Myöhemmin",
    "se": "Senare"
  },
  "ogImage": "https://firebasestorage.googleapis.com/v0/b/beer-buddy-6323b.appspot.com/o/splashscreen%2Fclinking-beer-mugs.png?alt=media&token=61b95c16-049b-4da6-8607-72497cfab901"
}