{
    "translations": {
        "lang": {
            "no": "no"
        },
        "app_name": {
            "no": "Beer Buddy"
        },
        "location_permission_desc": {
            "no": "Du må gi tilgang til posisjonen din ✌️ Kun dine Beer Buddy-venner kan se hvor du drikker en fantastisk øl."
        },
        "cheers_overlay_description_label": {
            "no": "Inviter vennene dine nå"
        },
        "enter_phone_number_desc_label": {
            "no": "Angi mobilnummeret ditt med landskode (!). Du vil motta én SMS-melding for bekreftelse. Priser på melding og dato kan gjelde."
        },
        "submit_phone_number_button": {
            "no": "Neste"
        },
        "submit_phone_number_title": {
            "no": "La oss først bekrefte telefonnummeret ditt"
        },
        "enter_phone_number_title": {
            "no": "Logg inn med telefonnummer"
        },
        "enter_phone_number_country_code_placeholder": {
            "no": "1"
        },
        "close": {
            "no": "Lukk"
        },
        "sender_display_name_fallback": {
            "no": "En venn"
        },
        "never": {
            "no": "Aldri"
        },
        "cheers_push_message": {
            "no": "💬 [name] sier: Skål 🍻"
        },
        "stay_push_message": {
            "no": "💬 [name] sier: 🚀 Bli sittende. Jeg er på vei!"
        },
        "social_param_title": {
            "no": "[name] inviterte deg til [appname]!"
        },
        "social_param_desc": {
            "no": "Legg meg til Beer Buddy slik at vi enkelt kan drikke sammen. Klikk på linken for å sende en venneforespørsel og installere appen."
        },
        "copied": {
            "no": "Kopiert 👍 Lim nå inn linken til vennene dine."
        },
        "friend_action_sheet_send_cheers": {
            "no": "🍻 Skål!"
        },
        "friend_action_sheet_stay": {
            "no": "🚀 Bli sittende. Jeg er på vei!"
        },
        "friend_action_sheet_directions": {
            "no": "Få veibeskrivelse til [name]"
        },
        "friend_action_sheet_to_friend_profile": {
            "no": "Del denne vennen"
        },
        "friend_action_sheet_remove": {
            "no": "Fjern venn"
        },
        "success": {
            "no": "Suksess"
        },
        "friend_removed_message": {
            "no": "[name] fjernet"
        },
        "ok": {
            "no": "OK"
        },
        "friend_profile_title": {
            "no": "Del vennen din"
        },
        "friend_profile_remove_friend_alert_title": {
            "no": "Fjern [name]"
        },
        "friend_profile_remove_friend_alert_message": {
            "no": "Vil du virkelig fjerne [name] fra vennelisten"
        },
        "friend_profile_remove_friend_cta": {
            "no": "Fjern [name] fra vennelisten"
        },
        "cancel": {
            "no": "Avnryt"
        },
        "logout": {
            "no": "Logg ut"
        },
        "change_name": {
            "no": "✏️ Endre navnet ditt"
        },
        "feedback": {
            "no": "💬 Gi oss tilbakemelding"
        },
        "add_drink_activity": {
            "en": "🎲 Play Drinking Games 🍷🍺"
        },
        "privacy_policy": {
            "no": "retningslinjer for personvern"
        },
        "terms": {
            "no": "vilkår for bruk"
        },
        "settings": {
            "en": "Beer Buddy ❤️"
        },
        "friendlist_title": {
            "no": "Legg til nye venner"
        },
        "open_friend_requests": {
            "no": "Åpne venneforespørsler"
        },
        "sent_friend_requests": {
            "no": "Sendte venneforespørsler"
        },
        "your_friends": {
            "no": "Dine venner"
        },
        "add_friend_qr_code": {
            "no": "Legg til venn med QR-kode"
        },
        "add_friend_camera_hint": {
            "no": "Trykk for å aktivere kamera og skanne dine venners QR-kode"
        },
        "scanning_not_supported_title": {
            "no": "Skanning støttes ikke"
        },
        "scanning_not_supported_message": {
            "no": "Enheten din støtter ikke skanning av en kode fra et element. Bruk en enhet med et kamera."
        },
        "friend_request_sent": {
            "no": "Venneforespørsel sendt"
        },
        "signup_moving_drink": {
            "no": "drikker"
        },
        "signup_moving_beer": {
            "no": "øl"
        },
        "signup_moving_coffee": {
            "no": "whisky"
        },
        "signup_moving_wine": {
            "no": "vin"
        },
        "agree_terms": {
            "no": "Ved å registrere deg samtykker du til våre vilkår for bruk og retningslinjer for personvern"
        },
        "friend_request_sent_message": {
            "no": "Du har sendt en venneforespørsel til [name]"
        },
        "welcome_title": {
            "no": "Velkommen fra [name]"
        },
        "welcome_message": {
            "no": "Du ble invitert av [name]. Logg deg på først. Deretter kobler vi deg sammen med vennen din 😀"
        },
        "received_friend_request_title": {
            "no": "Venneforespørsel"
        },
        "received_friend_request_message": {
            "no": "Du fikk en venneforespørsel fra [name]"
        },
        "accept": {
            "no": "Godta"
        },
        "missing_location_error": {
            "no": "Finner ikke posisjonen din, vennligst gi tilgang til posisjonen din"
        },
        "missing_user_id_error": {
            "no": "Du er ikke logget inn. Prøv å logge ut og på nytt"
        },
        "missing_user_display_name_error": {
            "no": "Du må velge et brukernavn"
        },
        "missing_snapchat_data": {
            "no": "Mangler dine Snapchat-brukerdata, prøv å logge inn på nytt"
        },
        "something_went_wrong": {
            "no": "Noe gikk galt, vennligst prøv å logge inn på nytt"
        },
        "invalid_chars_in_auth_token": {
            "no": "Ugyldige autentiske tegn"
        },
        "unable_generate_nonce": {
            "no": "Apple-pålogging mislyktes: Kunne ikke generere mangel. Prøv på nytt"
        },
        "apple_login_no_callback": {
            "no": "Ugyldig tilstand: Det ble mottatt et pålogging-callback, men ingen innloggingsforespørsel ble sendt. Prøv på nytt."
        },
        "apple_login_no_identity_token": {
            "no": "Kan ikke hente identitetstoken. Prøv på nytt."
        },
        "apple_login_unable_serialize": {
            "no": "Kan ikke serialisere tokenstreng fra data. Prøv på nytt."
        },
        "error": {
            "no": "Feil"
        },
        "a_moment_ago": {
            "no": "et øyeblikk siden"
        },
        "year_ago": {
            "no": "[count] år siden"
        },
        "years_ago": {
            "no": "[count] år siden"
        },
        "month_ago": {
            "no": "[count] måned siden"
        },
        "months_ago": {
            "no": "[count] måneder siden"
        },
        "day_ago": {
            "no": "[count] dag siden"
        },
        "days_ago": {
            "no": "[count] dager siden"
        },
        "hour_ago": {
            "no": "[count] time siden"
        },
        "hours_ago": {
            "no": "[count] timer siden"
        },
        "minute_ago": {
            "no": "[count] minutt siden"
        },
        "minutes_ago": {
            "no": "[count] minutter siden"
        },
        "signup_moving_suffix": {
            "no": "buddy"
        },
        "signup_message": {
            "no": "Del din drikkeaktivitet med venner"
        },
        "apple_login_cta": {
            "no": "Logg inn med Apple"
        },
        "phone_login_cta": {
            "no": "Logg inn med telefonnummer"
        },
        "phone_login_text1": {
            "no": "Vi sendte en SMS til [number], skriv inn koden fra SMS-meldingen. Ingen SMS mottatt? Klikk på Tilbake og sørg for at du oppgir riktig mobilnummer med landskode."
        },
        "phone_login_text2": {
            "no": "Angi den mottatte koden"
        },
        "phone_login_text3": {
            "no": "Send inn kode"
        },
        "copy_link": {
            "no": "Kopier link"
        },
        "qrcode": {
            "no": "QR-kode"
        },
        "message": {
            "no": "Melding"
        },
        "name_page1": {
            "no": "Hva er navnet ditt?"
        },
        "name_page2": {
            "no": "Tips: Velg en morsom alliterasjon, f.eks. Berusede Bernt, Døsige Daniel"
        },
        "name_page3": {
            "no": "Navnet ditt"
        },
        "name_page4": {
            "no": "Neste"
        },
        "verify": {
            "no": "Bekreft telefonnummer"
        },
        "enable_notification_title": {
            "no": "Aktiver varsler"
        },
        "enable_notification_message": {
            "no": "Du må aktivere varsler, slik at du får beskjed når vennene dine er ute."
        },
        "enable_notification_cta": {
            "no": "Aktiver varsler"
        },
        "enable_notification_skip": {
            "no": "Senere"
        },
        "location_permission_title": {
            "no": "Aktiver beliggenhet"
        },
        "location_permission_cta": {
            "no": "Aktiver beliggenhet"
        },
        "location_permission_skip": {
            "no": "Senere"
        },
        "profile_remove_friend_button": {
            "no": "Fjern venn"
        },
        "share_cta_facebook": {
            "no": "Messenger"
        },
        "share_cta_whatsapp": {
            "no": "WhatsApp"
        },
        "verify_phone_number_textfield_placeholder": {
            "no": "123456"
        },
        "overlay_cheers_title": {
            "no": "Skål!"
        },
        "overlay_share_photo_button": {
            "no": "Snap dette øyeblikket"
        },
        "overlay_close": {
            "no": "Nei takk"
        },
        "share_snapchat": {
            "no": "Snap drinken din"
        },
        "phone_number": {
            "no": "Landskode (+1) med telefonnummeret ditt"
        },
        "country_code": {
            "no": "Landskode"
        },
        "change_activity_name_title": {
            "no": "✏️ Gi den nytt navn!"
        },
        "change_activity_name_message": {
            "no": "Gi drinken / aktiviteten et annet navn. Det vises sammen med vennene dine på følgende måte: [message]"
        },
        "save": {
            "no": "Lagre"
        },
        "snapchatforce_title": {
            "no": "Hvor mange drikke-buddies har du?"
        },
        "snapchatforce_text": {
            "no": "Inviter snapchat-vennene dine ved å dele en snapchat story"
        },
        "delete_account_cta": {
            "no": "Slett konto"
        },
        "delete_account_title": {
            "no": "Slett konto"
        },
        "delete_account_message": {
            "no": "Er du sikker på at du vil slette kontoen din? Dette kan ikke angres! Trist å se deg gå 😥"
        },
        "need_recent_login_title": {
            "no": "Ny innlogging påkrevd"
        },
        "need_recent_login_message": {
            "no": "Det er en stund siden du logget inn. Logg deg ut og inn igjen for å slette kontoen din."
        },
        "advanced_settings": {
            "no": "Avanserte innstillinger"
        },
        "phone_number_input_placeholder": {
            "no": "+1-202-555-0165"
        },
        "enter_phone_number_missing_country_code_title": {
            "no": "Mangler landskode"
        },
        "enter_phone_number_missing_country_code_message": {
            "no": "Vennligst angi telefonnummeret ditt med landskode som dette +1-202-555-0165"
        },
        "custom_reply_cta": {
            "no": "💬 Send melding"
        },
        "send_custom_reply_message": {
            "en": ""
        },
        "send_custom_reply_title": {
            "no": "💬 Send melding"
        },
        "send_custom_reply_placeholder": {
            "no": "Angi svaret ditt her"
        },
        "send_custom_reply_template": {
            "no": "💬 [name] sier: [text]"
        },
        "send": {
            "no": "Send"
        },
        "snapchat_sticker_cta": {
            "no": "Sveip opp for å bli min drikkebuddy"
        },
        "history_title": {
            "no": "🌎 Drikkehistorien"
        },
        "history_settings": {
            "no": "🌎 Drikkehistorien"
        },
        "login_with_email": {
            "no": "Logg inn med e-post"
        },
        "enter_email": {
            "no": "Angi e-post"
        },
        "email": {
            "no": "E-post"
        },
        "submit_email": {
            "no": "Send"
        },
        "password": {
            "no": "Passord"
        },
        "rate_alert_title": {
            "no": "Vurder Beer Buddy"
        },
        "rate_alert_message": {
            "no": "Hvis du liker å bruke Beer Buddy, ville du tenke deg å ta et øyeblikk for å vurdere den? Det vil ikke ta mer enn 30 sekunder. Takk for støtten!"
        },
        "rate_alert_cta": {
            "no": "VURDER DEN NÅ"
        },
        "rate_alert_close": {
            "no": "NEI TAKK"
        },
        "rate_alert_later": {
            "no": "PÅMINN MEG SENERE"
        },
        "try_again_error_message": {
            "no": "Noe gikk galt 😢 Prøv igjen. Vi har akkurat fikset det 🥳"
        },
        "share_message": {
            "no": "Hei! Klikk her hvis du er min drikkekompis. User-ID: [usernameid] 🍺"
        },
        "email_template": {
            "en": "your@email.com"
        },
        "email_login_message": {
            "no": "Vi sender deg en e-post med en lenke. Klikk på denne lenken for å registrere deg og logge inn."
        },
        "check_mail_title": {
            "no": "📩 Du har mottatt en e-post!"
        },
        "check_mail_message": {
            "no": "Sjekk e-posten din og klikk på lenken i e-posten fra Beer Buddy, for å logge på."
        },
        "check_mail_open_mail": {
            "no": "Åpne e-postene mine"
        },
        "privacy_policy_as_link": {
            "no": "retningslinjer for personvern"
        },
        "terms_as_link": {
            "no": "vilkår for bruk"
        },
        "agree_terms_template": {
            "no": "Ved å registrere deg samtykker du til våre [terms] og [privacy_policy]"
        },
        "add_friends_title": {
            "no": "Legg til drikkevenninner"
        },
        "add_by_name": {
            "no": "Finn venner etter brukernavn"
        },
        "add_with_qr_code": {
            "no": "Skann QR kode"
        },
        "copy_invite_link": {
            "no": "Kopier min profillink"
        },
        "add_from_whatsapp": {
            "no": "Legg til WhatsApp-venner"
        },
        "add_from_snapchat": {
            "no": "Legg til Snapchat-venner"
        },
        "add_with_share_sheet": {
            "no": "Inviter nå vennene dine"
        },
        "copied_display_template": {
            "no": "📋 Kopierte invitasjonslenken din og brukernavnet ditt [usernameid] til utklippstavlen!"
        },
        "share_copy_paste_link_template": {
            "no": "Klikk her, hvis du er min drikkekompis: [link] 🍺 Mitt brukernavn på Beer Buddy er: [usernameid]"
        },
        "search_friend_title": {
            "no": "🔍 Søk venner"
        },
        "later": {
            "no": "Senere"
        },
        "yes": {
            "no": "Ja"
        },
        "connect_to_snapchat": {
            "no": "Koble til SnapchatLegg til"
        },
        "add": {
            "no": "Legg til"
        },
        "search_username_info": {
            "no": "IDen din er [brukernavn]"
        },
        "your_friend": {
            "no": "☑️ Allerede venner"
        },
        "friend_request_sent_short": {
            "no": "Forespørsel sendt"
        },
        "send_link_via": {
            "no": "Send en lenke i melding via"
        },
        "no_connection_title": {
            "en": "Ooops!"
        },
        "no_connection_desc": {
            "en": "We are unable to connect to the internet. Do you have internet? Please try again!"
        },
        "sort_24h": {
            "en": "24h"
        },
        "sort_total": {
            "no": "Total"
        },
        "your_drinks": {
            "no": "Drinkene dine"
        },
        "friendlist_invite_friends_button": {
            "no": "➡️ For å legge til nye drikkekompiser, trykk her."
        },
        "force_invite_title": {
            "no": "Hvor mange drikke-buddies har du?"
        },
        "force_invite_message": {
            "no": "Inviter vennene dine ved å dele din personlige lenke."
        },
        "force_invite_cta": {
            "no": "OK"
        },
        "denied_notifications_permission_title": {
            "no": "⚠️ Vi kan ikke sende deg varsler.."
        },
        "denied_notifications_permission_message": {
            "no": "Du kan ikke motta meldinger fra venner! 👉 Trykk her for å gå til telefoninnstillingene dine og aktivere varselstillatelsen for Beer Buddy."
        },
        "settings_your_friends": {
            "no": "🍻 Dine venner og drinker"
        },
        "settings_invite_friends": {
            "no": "🔎 Legg til vennene dine"
        },
        "friend_request_received_push_title": {
            "no": "Venneforespørsel fra [username]"
        },
        "friend_request_received_push_message": {
            "no": "[username] vil legge deg til som venn"
        },
        "friend_request_accepted_push_title": {
            "no": "[username] er nå din venn"
        },
        "friend_request_accepted_push_message": {
            "no": "Nå åpner Beer Buddy og skål for det! 🍻"
        },
        "reject": {
            "no": "avfall"
        },
        "menu_photo": {
            "no": "Ta et bilde av drinken din!"
        },
        "menu_cancel_camera": {
            "no": "Skru av"
        },
        "photoPushText": {
            "en": "[pushText] 📷"
        },
        "open_in_safari": {
            "no": "Åpent i Safari"
        },
        "delete_image_title": {
            "no": "slett bilde"
        },
        "delete_image_message": {
            "no": "Er du sikker på at du vil slette dette bildet? Dette kan ikke angres."
        },
        "delete": {
            "no": "Klar"
        },
        "suggest_friend_add_cta": {
            "no": "Legg til"
        },
        "suggested_friends_title": {
            "no": "Quick Add"
        },
        "checkout_title": {
            "no": "Drikker du ikke lenger?"
        },
        "checkout_message": {
            "no": "Når du sjekker ut, vil du ikke være synlig på kartet lenger. Du blir sjekket ut automatisk etter 2 timer."
        },
        "checkout_cta": {
            "no": "Jeg er ferdig!"
        },
        "unread_message_fl": {
            "no": "Ny melding"
        },
        "not_drinking": {
            "no": "drikker ikke"
        },
        "suggestable_permission_title": {
            "no": "Vises som en foreslått venn"
        },
        "searchable_permission_title": {
            "no": "Vises i brukersøket"
        },
        "change_language": {
            "en": "🌍 Change language"
        }
    }
}