{
  "activities": [
    {
      "id": 6,
      "sendPush": true,
      "dateable": true,
      "promoImageUrl": "https://firebasestorage.googleapis.com/v0/b/wanna-1.appspot.com/o/promoimages%2Fcoffee.jpg?alt=media&token=5432b8ea-04ac-4169-9725-031cf5991595",
      "displayName": {
        "en": "Coffee"
      },
      "verb": {
        "en": "wanna"
      },
      "pushText": {
        "en": "💬 [name] says: Wanna coffee?"
      },
      "customActivityOmitsVerb": false,
      "analyticName": "coffee",
      "imageName": "coffee",
      "emoji":  "☕",
      "defaultReplyCheersPush": {
        "en": "[name] says: I'm in!"
      },
      "defaultReplyCheersButton": {
        "en": "🙋‍♂️ I'm in!"
      },
      "defaultReplyStayPush": {
        "en": "[name] says: 🙋‍♂️ When and where"
      },
      "defaultReplyStayButton": {
        "en": "🙋‍♂️ When and where?"
      }
    },
    {
      "id": 2,
      "sendPush": true,
      "dateable": true,
      "promoImageUrl": "https://firebasestorage.googleapis.com/v0/b/wanna-1.appspot.com/o/promoimages%2Fbeer.jpg?alt=media&token=079888a4-4d75-49ab-b006-fb61e1d0da9a",
      "displayName": {
        "en": "Beer"
      },
      "verb": {
        "en": "wanna"
      },
      "pushText": {
        "en": "💬 [name] says: Wanna beer?"
      },
      "customActivityOmitsVerb": false,
      "analyticName": "beer",
      "imageName": "beer",
      "emoji":  "🍺",
      "defaultReplyCheersPush": {
        "en": "[name] says: I'm in!"
      },
      "defaultReplyCheersButton": {
        "en": "🙋‍♂️ I'm in!"
      },
      "defaultReplyStayPush": {
        "en": "[name] says: 🙋‍♂️ When and where"
      },
      "defaultReplyStayButton": {
        "en": "🙋‍♂️ When and where?"
      }
    },

    {
      "id": 1,
      "sendPush": true,
      "dateable": true,
      "promoImageUrl": "https://firebasestorage.googleapis.com/v0/b/wanna-1.appspot.com/o/promoimages%2Fwine.jpg?alt=media&token=6674f1bd-9748-4a92-b8ea-9cc2c76d1e17",
      "displayName": {
        "en": "Wine"
      },
      "verb": {
        "en": "wanna"
      },
      "pushText": {
        "en": "💬 [name] says: Wanna wine?"
      },
      "customActivityOmitsVerb": false,
      "analyticName": "wine",
      "imageName": "food/wine-glass",
      "emoji":  "🍷",
      "defaultReplyCheersPush": {
        "en": "[name] says: I'm in!"
      },
      "defaultReplyCheersButton": {
        "en": "🙋‍♂️ I'm in!"
      },
      "defaultReplyStayPush": {
        "en": "[name] says: 🙋‍♂️ When and where"
      },
      "defaultReplyStayButton": {
        "en": "🙋‍♂️ When and where?"
      }
    },
    {
      "id": 3,
      "sendPush": true,
      "dateable": true,
      "promoImageUrl": "https://firebasestorage.googleapis.com/v0/b/wanna-1.appspot.com/o/promoimages%2Fcocktails.jpg?alt=media&token=2faa5e3c-f2cd-4345-9322-7126cd65949b",
      "displayName": {
        "en": "Cocktail"
      },
      "verb": {
        "en": "wanna"
      },
      "pushText": {
        "en": "💬 [name] says: Wanna cocktail?"
      },
      "customActivityOmitsVerb": false,
      "analyticName": "cocktail",
      "imageName": "cocktail",
      "emoji":  "🍹",
      "defaultReplyCheersPush": {
        "en": "[name] says: I'm in!"
      },
      "defaultReplyCheersButton": {
        "en": "🙋‍♂️ I'm in!"
      },
      "defaultReplyStayPush": {
        "en": "[name] says: 🙋‍♂️ When and where"
      },
      "defaultReplyStayButton": {
        "en": "🙋‍♂️ When and where?"
      }
    },
    {
      "id": 7,
      "sendPush": true,
      "dateable": true,
      
      "displayName": {
        "en": "Hang Out"
      },
      "verb": {
        "en": "wanna"
      },
      "pushText": {
        "en": "💬 [name] says: Wanna Hang out?"
      },
      "customActivityOmitsVerb": false,
      "analyticName": "waving-hand",
      "imageName": "people/waving-hand",
      "emoji":  "👋",
      "defaultReplyCheersPush": {
        "en": "[name] says: I'm in!"
      },
      "defaultReplyCheersButton": {
        "en": "🙋‍♂️ I'm in!"
      },
      "defaultReplyStayPush": {
        "en": "[name] says: 🙋‍♂️ When and where"
      },
      "defaultReplyStayButton": {
        "en": "🙋‍♂️ When and where?"
      }
    },
    {
      "id": 11,
      "sendPush": true,
      "dateable": true,
      
      "displayName": {
        "en": "Go For A Walk"
      },
      "verb": {
        "en": "wanna"
      },
      "pushText": {
        "en": "💬 [name] says: Wanna Go For a Walk?"
      },
      "customActivityOmitsVerb": false,
      "analyticName": "goingforawalk",
      "imageName": "nature/deciduous-tree",
      "emoji":  "🌳",
      "defaultReplyCheersPush": {
        "en": "[name] says: I'm in!"
      },
      "defaultReplyCheersButton": {
        "en": "🙋‍♂️ I'm in!"
      },
      "defaultReplyStayPush": {
        "en": "[name] says: 🙋‍♂️ When and where"
      },
      "defaultReplyStayButton": {
        "en": "🙋‍♂️ When and where?"
      }  },

    
    {
      "id": 27,
      "sendPush": true,
      "dateable": true,
      
      "displayName": {
        "en": "Breakfast"
      },
      "verb": {
        "en": "wanna"
      },
      "pushText": {
        "en": "💬 [name] says: Wanna Breakfast?"
      },
      "customActivityOmitsVerb": false,
      "analyticName": "breakfast",
      "imageName": "food/croissant",
      "emoji":  "🥐",
      "defaultReplyCheersPush": {
        "en": "[name] says: I'm in!"
      },
      "defaultReplyCheersButton": {
        "en": "🙋‍♂️ I'm in!"
      },
      "defaultReplyStayPush": {
        "en": "[name] says: 🙋‍♂️ When and where"
      },
      "defaultReplyStayButton": {
        "en": "🙋‍♂️ When and where?"
      }  },

    
    {
      "id": 205,
      "sendPush": true,
      "dateable": true,
      
      "displayName": {
        "en": "Brunch"
      },
      "verb": {
        "en": "wanna"
      },
      "pushText": {
        "en": "💬 [name] says: Wanna Brunch?"
      },
      "customActivityOmitsVerb": false,
      "analyticName": "brunch",
      "imageName": "food/pancakes",
      "emoji":  "🥞",
      "defaultReplyCheersPush": {
        "en": "[name] says: I'm in!"
      },
      "defaultReplyCheersButton": {
        "en": "🙋‍♂️ I'm in!"
      },
      "defaultReplyStayPush": {
        "en": "[name] says: 🙋‍♂️ When and where"
      },
      "defaultReplyStayButton": {
        "en": "🙋‍♂️ When and where?"
      }  },
    
    {
      "id": 29,
      "sendPush": true,
      "dateable": true,
      
      "displayName": {
        "en": "Dinner"
      },
      "verb": {
        "en": "wanna"
      },
      "pushText": {
        "en": "💬 [name] says: Wanna Dinner?"
      },
      "customActivityOmitsVerb": false,
      "analyticName": "dinner",
      "imageName": "food/fork-and-knife-with-plate",
      "emoji":  "🍽️",
      "defaultReplyCheersPush": {
        "en": "[name] says: I'm in!"
      },
      "defaultReplyCheersButton": {
        "en": "🙋‍♂️ I'm in!"
      },
      "defaultReplyStayPush": {
        "en": "[name] says: 🙋‍♂️ When and where"
      },
      "defaultReplyStayButton": {
        "en": "🙋‍♂️ When and where?"
      }  },
    
    {
      "id": 207,
      "sendPush": true,
      "dateable": true,
      
      "displayName": {
        "en": "Cook"
      },
      "verb": {
        "en": "wanna"
      },
      "pushText": {
        "en": "💬 [name] says: Wanna Cook?"
      },
      "customActivityOmitsVerb": false,
      "analyticName": "cook",
      "imageName": "food/cooking",
      "emoji":  "🍳",
      "defaultReplyCheersPush": {
        "en": "[name] says: I'm in!"
      },
      "defaultReplyCheersButton": {
        "en": "🙋‍♂️ I'm in!"
      },
      "defaultReplyStayPush": {
        "en": "[name] says: 🙋‍♂️ When and where"
      },
      "defaultReplyStayButton": {
        "en": "🙋‍♂️ When and where?"
      }  },
    
  
      {
      "id": 24,
      "sendPush": true,
      "dateable": true,
      
      "displayName": {
        "en": "Go Out"
      },
      "verb": {
        "en": "wanna"
      },
      "pushText": {
        "en": "💬 [name] says: Wanna Go Out?"
      },
      "customActivityOmitsVerb": false,
      "analyticName": "goout",
      "imageName": "people/woman-dancing",
      "emoji":  "💃",
      "defaultReplyCheersPush": {
        "en": "[name] says: I'm in!"
      },
      "defaultReplyCheersButton": {
        "en": "🙋‍♂️ I'm in!"
      },
      "defaultReplyStayPush": {
        "en": "[name] says: 🙋‍♂️ When and where"
      },
      "defaultReplyStayButton": {
        "en": "🙋‍♂️ When and where?"
      }  }  ,
    {
      "id": 10,
      "sendPush": true,
      "dateable": true,
      
      "displayName": {
        "en": "Dance"
      },
      "verb": {
        "en": "wanna"
      },
      "pushText": {
        "en": "💬 [name] says: Wanna Dance?"
      },
      "customActivityOmitsVerb": false,
      "analyticName": "dance",
      "imageName": "people/women-with-bunny-ears",
      "emoji":  "👯",
      "defaultReplyCheersPush": {
        "en": "[name] says: I'm in!"
      },
      "defaultReplyCheersButton": {
        "en": "🙋‍♂️ I'm in!"
      },
      "defaultReplyStayPush": {
        "en": "[name] says: 🙋‍♂️ When and where"
      },
      "defaultReplyStayButton": {
        "en": "🙋‍♂️ When and where?"
      }  },
    {
      "id": 51,
      "sendPush": true,
      "dateable": true,
      "displayName": {
        "en": "Blaze"
      },
      "verb": {
        "en": "wanna"
      },
      "pushText": {
        "en": "💬 [name] says: Wanna Blaze?"
      },
      "customActivityOmitsVerb": false,
      "analyticName": "blaze",
      "imageName": "nature/herb",
      "emoji":  "🌿",
      "defaultReplyCheersPush": {
        "en": "[name] says: I'm in!"
      },
      "defaultReplyCheersButton": {
        "en": "🙋‍♂️ I'm in!"
      },
      "defaultReplyStayPush": {
        "en": "[name] says: 🙋‍♂️ When and where"
      },
      "defaultReplyStayButton": {
        "en": "🙋‍♂️ When and where?"
      }
    },
    
    {
      "id": 210,
      "sendPush": true,
      "dateable": true,
      "displayName": {
        "en": "Talk"
      },
      "verb": {
        "en": "wanna"
      },
      "pushText": {
        "en": "💬 [name] says: Wanna Talk?"
      },
      "customActivityOmitsVerb": false,
      "analyticName": "talk",
      "imageName": "people/speaking-head",
      "emoji":  "🗣️",
      "defaultReplyCheersPush": {
        "en": "[name] says: I'm in!"
      },
      "defaultReplyCheersButton": {
        "en": "🙋‍♂️ I'm in!"
      },
      "defaultReplyStayPush": {
        "en": "[name] says: 🙋‍♂️ When and where"
      },
      "defaultReplyStayButton": {
        "en": "🙋‍♂️ When and where?"
      }
    },
    {
      "id": 211,
      "sendPush": true,
      "dateable": true,
      "displayName": {
        "en": "Meet new people"
      },
      "verb": {
        "en": "wanna"
      },
      "pushText": {
        "en": "💬 [name] says: Wanna Meet New People?"
      },
      "customActivityOmitsVerb": false,
      "analyticName": "meetnewpeople",
      "imageName": "people/thumbs-up",
      "emoji":  "👍",
      "defaultReplyCheersPush": {
        "en": "[name] says: I'm in!"
      },
      "defaultReplyCheersButton": {
        "en": "🙋‍♂️ I'm in!"
      },
      "defaultReplyStayPush": {
        "en": "[name] says: 🙋‍♂️ When and where"
      },
      "defaultReplyStayButton": {
        "en": "🙋‍♂️ When and where?"
      }
    },
    

      {
        "id": 8,
        "sendPush": true,
        "dateable": true,
        
        "displayName": {
          "en": "Go To A Bar"
        },
        "verb": {
          "en": "wanna"
        },
        "pushText": {
          "en": "💬 [name] says: Wanna Go To A Bar?"
        },
        "customActivityOmitsVerb": false,
        "analyticName": "hangoutbar",
        "imageName": "live/bar2",
        "emoji":  "🍻",
        "defaultReplyCheersPush": {
          "en": "[name] says: I'm in!"
        },
        "defaultReplyCheersButton": {
          "en": "🙋‍♂️ I'm in!"
        },
        "defaultReplyStayPush": {
          "en": "[name] says: 🙋‍♂️ When and where"
        },
        "defaultReplyStayButton": {
          "en": "🙋‍♂️ When and where?"
        }  },
    
    
    {
      "id": 208,
      "sendPush": true,
      "dateable": true,
      
      "displayName": {
        "en": "Explore A Restaurant"
      },
      "verb": {
        "en": "wanna"
      },
      "pushText": {
        "en": "💬 [name] says: Wanna Explore A Restaurant?"
      },
      "customActivityOmitsVerb": false,
      "analyticName": "restaurant",
      "imageName": "food/spaghetti",
      "emoji":  "🍝",
      "defaultReplyCheersPush": {
        "en": "[name] says: I'm in!"
      },
      "defaultReplyCheersButton": {
        "en": "🙋‍♂️ I'm in!"
      },
      "defaultReplyStayPush": {
        "en": "[name] says: 🙋‍♂️ When and where"
      },
      "defaultReplyStayButton": {
        "en": "🙋‍♂️ When and where?"
      }  },
    

        {
          "id": 9,
          "sendPush": true,
          "dateable": true,
          
          "displayName": {
            "en": "Bar Hopping"
          },
          "verb": {
            "en": "wanna"
          },
          "pushText": {
            "en": "💬 [name] says: Wanna Bar Hopping?"
          },
          "customActivityOmitsVerb": false,
          "analyticName": "barhopping",
          "imageName": "live/barhopping",
          "emoji":  "🍻",
          "defaultReplyCheersPush": {
            "en": "[name] says: I'm in!"
          },
          "defaultReplyCheersButton": {
            "en": "🙋‍♂️ I'm in!"
          },
          "defaultReplyStayPush": {
            "en": "[name] says: 🙋‍♂️ When and where"
          },
          "defaultReplyStayButton": {
            "en": "🙋‍♂️ When and where?"
          }  },
    
    {
      "id": 212,
      "sendPush": true,
      "dateable": true,
      "displayName": {
        "en": "Try Out Something"
      },
      "verb": {
        "en": "wanna"
      },
      "pushText": {
        "en": "💬 [name] says: Wanna Try Out Something?"
      },
      "customActivityOmitsVerb": false,
      "analyticName": "tryoutsomethingnew",
      "imageName": "people/upside-down-face",
      "emoji":  "🙃",
      "defaultReplyCheersPush": {
        "en": "[name] says: I'm in!"
      },
      "defaultReplyCheersButton": {
        "en": "🙋‍♂️ I'm in!"
      },
      "defaultReplyStayPush": {
        "en": "[name] says: 🙋‍♂️ When and where"
      },
      "defaultReplyStayButton": {
        "en": "🙋‍♂️ When and where?"
      }
    },
    {
      "id": 228,
      "sendPush": true,
      "dateable": true,
      
      "displayName": {
        "en": "Bake"
      },
      "verb": {
        "en": "wanna"
      },
      "pushText": {
        "en": "💬 [name] says: Wanna Bake?"
      },
      "customActivityOmitsVerb": false,
      "analyticName": "bake",
      "imageName": "food/shortcake",
      "emoji":  "🍰",
      "defaultReplyCheersPush": {
        "en": "[name] says: I'm in!"
      },
      "defaultReplyCheersButton": {
        "en": "🙋‍♂️ I'm in!"
      },
      "defaultReplyStayPush": {
        "en": "[name] says: 🙋‍♂️ When and where"
      },
      "defaultReplyStayButton": {
        "en": "🙋‍♂️ When and where?"
      }  },
    
    {
      "id": 71,
      "sendPush": true,
      "dateable": true,
      
      "displayName": {
        "en": "Pizza"
      },
      "verb": {
        "en": "wanna"
      },
      "pushText": {
        "en": "💬 [name] says: Wanna Pizza?"
      },
      "customActivityOmitsVerb": false,
      "analyticName": "pizza",
      "imageName": "food/pizza",
      "emoji":  "🍕",
      "defaultReplyCheersPush": {
        "en": "[name] says: I'm in!"
      },
      "defaultReplyCheersButton": {
        "en": "🙋‍♂️ I'm in!"
      },
      "defaultReplyStayPush": {
        "en": "[name] says: 🙋‍♂️ When and where"
      },
      "defaultReplyStayButton": {
        "en": "🙋‍♂️ When and where?"
      }  },
    
    {
      "id": 30,
      "sendPush": true,
      "dateable": true,
      
      "displayName": {
        "en": "Ice Cream"
      },
      "verb": {
        "en": "wanna"
      },
      "pushText": {
        "en": "💬 [name] says: Wanna Ice Cream?"
      },
      "customActivityOmitsVerb": false,
      "analyticName": "icecream",
      "imageName": "food/ice-cream",
      "emoji":  "🍨",
      "defaultReplyCheersPush": {
        "en": "[name] says: I'm in!"
      },
      "defaultReplyCheersButton": {
        "en": "🙋‍♂️ I'm in!"
      },
      "defaultReplyStayPush": {
        "en": "[name] says: 🙋‍♂️ When and where"
      },
      "defaultReplyStayButton": {
        "en": "🙋‍♂️ When and where?"
      }  },

    
    {
      "id": 12,
      "sendPush": true,
      "dateable": true,
      
      "displayName": {
        "en": "Wine Tasting"
      },
      "verb": {
        "en": "wanna"
      },
      "pushText": {
        "en": "💬 [name] says: Wanna Wine Tasting?"
      },
      "customActivityOmitsVerb": false,
      "analyticName": "winetasting",
      "imageName": "live/winetasting",
      "emoji":  "🍷",
      "defaultReplyCheersPush": {
        "en": "[name] says: I'm in!"
      },
      "defaultReplyCheersButton": {
        "en": "🙋‍♂️ I'm in!"
      },
      "defaultReplyStayPush": {
        "en": "[name] says: 🙋‍♂️ When and where"
      },
      "defaultReplyStayButton": {
        "en": "🙋‍♂️ When and where?"
      }  },
    {
      "id": 13,
      "sendPush": true,
      "dateable": true,
      
      "displayName": {
        "en": "Boardgames"
      },
      "verb": {
        "en": "wanna"
      },
      "pushText": {
        "en": "💬 [name] says: Wanna Play Boardgames?"
      },
      "customActivityOmitsVerb": false,
      "analyticName": "boardgames",
      "imageName": "live/boardgames",
      "emoji":  "🍷🃏",
      "defaultReplyCheersPush": {
        "en": "[name] says: I'm in!"
      },
      "defaultReplyCheersButton": {
        "en": "🙋‍♂️ I'm in!"
      },
      "defaultReplyStayPush": {
        "en": "[name] says: 🙋‍♂️ When and where"
      },
      "defaultReplyStayButton": {
        "en": "🙋‍♂️ When and where?"
      }  }
    ,
    {
      "id": 61,
      "category": "live",
      "sendPush": true,
      "dateable": true,
      
      "displayName": {
        "en": "Run"
      },
      "verb": {
        "en": "wanna"
      },
      "pushText": {
        "en": "💬 [name] says: Wanna Play Run?"
      },
      "customActivityOmitsVerb": false,
      "analyticName": "run",
      "imageName": "people/running-shoe",
      "emoji":  "👟",
      "defaultReplyCheersPush": {
        "en": "[name] says: I'm in!"
      },
      "defaultReplyCheersButton": {
        "en": "🙋‍♂️ I'm in!"
      },
      "defaultReplyStayPush": {
        "en": "[name] says: 🙋‍♂️ When and where"
      },
      "defaultReplyStayButton": {
        "en": "🙋‍♂️ When and where?"
      }  },   
    {
        "id": 62,
        "category": "live",
        "sendPush": true,
        "dateable": true,
        
        "displayName": {
          "en": "Football"
        },
        "verb": {
          "en": "wanna"
        },
        "pushText": {
          "en": "💬 [name] says: Wanna Football?"
        },
        "customActivityOmitsVerb": false,
        "analyticName": "americanfootball",
        "imageName": "activity/american-football",
        "emoji":  "🏈",
        "defaultReplyCheersPush": {
          "en": "[name] says: I'm in!"
        },
        "defaultReplyCheersButton": {
          "en": "🙋‍♂️ I'm in!"
        },
        "defaultReplyStayPush": {
          "en": "[name] says: 🙋‍♂️ When and where"
        },
        "defaultReplyStayButton": {
          "en": "🙋‍♂️ When and where?"
        }  },
    {
      "id": 63,
      "category": "live",
      "sendPush": true,
      "dateable": true,
      
      "displayName": {
        "en": "Baseball"
      },
      "verb": {
        "en": "wanna"
      },
      "pushText": {
        "en": "💬 [name] says: Wanna Baseball?"
      },
      "customActivityOmitsVerb": false,
      "analyticName": "baseball",
      "imageName": "activity/baseball",
      "emoji":  "⚾",
      "defaultReplyCheersPush": {
        "en": "[name] says: I'm in!"
      },
      "defaultReplyCheersButton": {
        "en": "🙋‍♂️ I'm in!"
      },
      "defaultReplyStayPush": {
        "en": "[name] says: 🙋‍♂️ When and where"
      },
      "defaultReplyStayButton": {
        "en": "🙋‍♂️ When and where?"
      }  },
    
    {
      "id": 201,
      "sendPush": true,
      "dateable": true,
      "category": "live",

      "displayName": {
        "en": "Yoga"
      },
      "verb": {
        "en": "wanna"
      },
      "pushText": {
        "en": "💬 [name] says: Wanna Yoga?"
      },
      "customActivityOmitsVerb": false,
      "analyticName": "yoga",
      "imageName": "activity/man-in-lotus-position",
      "emoji":  "🧘‍♀️",
      "defaultReplyCheersPush": {
        "en": "[name] says: I'm in!"
      },
      "defaultReplyCheersButton": {
        "en": "🙋‍♂️ I'm in!"
      },
      "defaultReplyStayPush": {
        "en": "[name] says: 🙋‍♂️ When and where"
      },
      "defaultReplyStayButton": {
        "en": "🙋‍♂️ When and where?"
      }  },
    
    


    

    {
      "id": 64,
      "category": "live",
      "sendPush": true,
      "dateable": true,
      
      "displayName": {
        "en": "Tennis"
      },
      "verb": {
        "en": "wanna"
      },
      "pushText": {
        "en": "💬 [name] says: Wanna Tennis?"
      },
      "customActivityOmitsVerb": false,
      "analyticName": "tennis",
      "imageName": "activity/tennis",
      "emoji":  "🎾",
      "defaultReplyCheersPush": {
        "en": "[name] says: I'm in!"
      },
      "defaultReplyCheersButton": {
        "en": "🙋‍♂️ I'm in!"
      },
      "defaultReplyStayPush": {
        "en": "[name] says: 🙋‍♂️ When and where"
      },
      "defaultReplyStayButton": {
        "en": "🙋‍♂️ When and where?"
      }  }, 
    {
        "id": 65,
        "category": "live",
        "sendPush": true,
        "dateable": true,
        
        "displayName": {
          "en": "Badminton"
        },
        "verb": {
          "en": "wanna"
        },
        "pushText": {
          "en": "💬 [name] says: Wanna Badminton?"
        },
        "customActivityOmitsVerb": false,
        "analyticName": "badminton",
        "imageName": "activity/badminton",
        "emoji":  "🏸",
        "defaultReplyCheersPush": {
          "en": "[name] says: I'm in!"
        },
        "defaultReplyCheersButton": {
          "en": "🙋‍♂️ I'm in!"
        },
        "defaultReplyStayPush": {
          "en": "[name] says: 🙋‍♂️ When and where"
        },
        "defaultReplyStayButton": {
          "en": "🙋‍♂️ When and where?"
        }  },
    
    {
      "id": 202,
      "sendPush": true,
      "dateable": true,
      "category": "live",
      
      "displayName": {
        "en": "Bike"
      },
      "verb": {
        "en": "wanna"
      },
      "pushText": {
        "en": "💬 [name] says: Wanna Bike?"
      },
      "customActivityOmitsVerb": false,
      "analyticName": "bike",
      "imageName": "activity/woman-biking",
      "emoji":  "🚴‍♀️",
      "defaultReplyCheersPush": {
        "en": "[name] says: I'm in!"
      },
      "defaultReplyCheersButton": {
        "en": "🙋‍♂️ I'm in!"
      },
      "defaultReplyStayPush": {
        "en": "[name] says: 🙋‍♂️ When and where"
      },
      "defaultReplyStayButton": {
        "en": "🙋‍♂️ When and where?"
      }  },
    


    {
      "id": 203,
      "category": "live",
      "sendPush": true,
      "dateable": true,
      
      "displayName": {
        "en": "Hike"
      },
      "verb": {
        "en": "wanna"
      },
      "pushText": {
        "en": "💬 [name] says: Wanna Hike?"
      },
      "customActivityOmitsVerb": false,
      "analyticName": "hike",
      "imageName": "people/hiking-boot",
      "emoji":  "🥾",
      "defaultReplyCheersPush": {
        "en": "[name] says: I'm in!"
      },
      "defaultReplyCheersButton": {
        "en": "🙋‍♂️ I'm in!"
      },
      "defaultReplyStayPush": {
        "en": "[name] says: 🙋‍♂️ When and where"
      },
      "defaultReplyStayButton": {
        "en": "🙋‍♂️ When and where?"
      }  },
    {
      "id": 68,
      "category": "live",
      "sendPush": true,
      "dateable": true,
      
      "displayName": {
        "en": "Play Games"
      },
      "verb": {
        "en": "wanna"
      },
      "pushText": {
        "en": "💬 [name] says: Wanna Play Games?"
      },
      "customActivityOmitsVerb": false,
      "analyticName": "makemusic",
      "imageName": "activity/video-game",
      "emoji":  "🎮",
      "defaultReplyCheersPush": {
        "en": "[name] says: I'm in!"
      },
      "defaultReplyCheersButton": {
        "en": "🙋‍♂️ I'm in!"
      },
      "defaultReplyStayPush": {
        "en": "[name] says: 🙋‍♂️ When and where"
      },
      "defaultReplyStayButton": {
        "en": "🙋‍♂️ When and where?"
      }  },
    {
      "id": 67,
      "category": "live",
      "sendPush": true,
      "dateable": true,
      
      "displayName": {
        "en": "Skate"
      },
      "verb": {
        "en": "wanna"
      },
      "pushText": {
        "en": "💬 [name] says: Wanna Skate?"
      },
      "customActivityOmitsVerb": false,
      "analyticName": "skateboard",
      "imageName": "activity/skateboard",
      "emoji":  "🛹",
      "defaultReplyCheersPush": {
        "en": "[name] says: I'm in!"
      },
      "defaultReplyCheersButton": {
        "en": "🙋‍♂️ I'm in!"
      },
      "defaultReplyStayPush": {
        "en": "[name] says: 🙋‍♂️ When and where"
      },
      "defaultReplyStayButton": {
        "en": "🙋‍♂️ When and where?"
      }  },


    {
      "id": 69,
      "category": "live",
      "sendPush": true,
      "dateable": true,
      
      "displayName": {
        "en": "Surf"
      },
      "verb": {
        "en": "wanna"
      },
      "pushText": {
        "en": "💬 [name] says: Wanna Surf?"
      },
      "customActivityOmitsVerb": false,
      "analyticName": "surf",
      "imageName": "activity/man-surfing",
      "emoji":  "🏄‍♂️",
      "defaultReplyCheersPush": {
        "en": "[name] says: I'm in!"
      },
      "defaultReplyCheersButton": {
        "en": "🙋‍♂️ I'm in!"
      },
      "defaultReplyStayPush": {
        "en": "[name] says: 🙋‍♂️ When and where"
      },
      "defaultReplyStayButton": {
        "en": "🙋‍♂️ When and where?"
      }  },
    {
      "id": 68,
      "category": "live",
      "sendPush": true,
      "dateable": true,
      
      "displayName": {
        "en": "Swim"
      },
      "verb": {
        "en": "wanna"
      },
      "pushText": {
        "en": "💬 [name] says: Wanna Swim?"
      },
      "customActivityOmitsVerb": false,
      "analyticName": "swim",
      "imageName": "activity/man-swimming",
      "emoji":  "🏊",
      "defaultReplyCheersPush": {
        "en": "[name] says: I'm in!"
      },
      "defaultReplyCheersButton": {
        "en": "🙋‍♂️ I'm in!"
      },
      "defaultReplyStayPush": {
        "en": "[name] says: 🙋‍♂️ When and where"
      },
      "defaultReplyStayButton": {
        "en": "🙋‍♂️ When and where?"
      }  },

    {
      "id": 14,
      "category": "live",
      "sendPush": true,
      "dateable": true,
      
      "displayName": {
        "en": "Beer Pong"
      },
      "verb": {
        "en": "wanna"
      },
      "pushText": {
        "en": "💬 [name] says: Wanna Play Beer Pong?"
      },
      "customActivityOmitsVerb": false,
      "analyticName": "beerpong",
      "imageName": "live/beerpong",
      "emoji":  "🍺",
      "defaultReplyCheersPush": {
        "en": "[name] says: I'm in!"
      },
      "defaultReplyCheersButton": {
        "en": "🙋‍♂️ I'm in!"
      },
      "defaultReplyStayPush": {
        "en": "[name] says: 🙋‍♂️ When and where"
      },
      "defaultReplyStayButton": {
        "en": "🙋‍♂️ When and where?"
      }  },
    {
      "id": 15,
      "category": "live",
      "sendPush": true,
      "dateable": true,
      
      "displayName": {
        "en": "Darts"
      },
      "verb": {
        "en": "wanna"
      },
      "pushText": {
        "en": "💬 [name] says: Wanna Play Darts?"
      },
      "customActivityOmitsVerb": false,
      "analyticName": "darts",
      "imageName": "live/darts",
      "emoji":  "🍷🃏🍺🎯",
      "defaultReplyCheersPush": {
        "en": "[name] says: I'm in!"
      },
      "defaultReplyCheersButton": {
        "en": "🙋‍♂️ I'm in!"
      },
      "defaultReplyStayPush": {
        "en": "[name] says: 🙋‍♂️ When and where"
      },
      "defaultReplyStayButton": {
        "en": "🙋‍♂️ When and where?"
      }  }
    ,
    {
      "id": 16,
      "category": "live",
      "sendPush": true,
      "dateable": true,
      
      "displayName": {
        "en": "Ping Pong"
      },
      "verb": {
        "en": "wanna"
      },
      "pushText": {
        "en": "💬 [name] says: Wanna Ping Pong?"
      },
      "customActivityOmitsVerb": false,
      "analyticName": "pingpong",
      "imageName": "live/pingpong",
      "emoji":  "🏓",
      "defaultReplyCheersPush": {
        "en": "[name] says: I'm in!"
      },
      "defaultReplyCheersButton": {
        "en": "🙋‍♂️ I'm in!"
      },
      "defaultReplyStayPush": {
        "en": "[name] says: 🙋‍♂️ When and where"
      },
      "defaultReplyStayButton": {
        "en": "🙋‍♂️ When and where?"
      }  },
    {
      "id": 17,
      "category": "live",
      "sendPush": true,
      "dateable": true,
      
      "displayName": {
        "en": "Pool"
      },
      "verb": {
        "en": "wanna"
      },
      "pushText": {
        "en": "💬 [name] says: Wanna Play Pool?"
      },
      "customActivityOmitsVerb": false,
      "analyticName": "pool",
      "imageName": "live/pool",
      "emoji":  "🎱",
      "defaultReplyCheersPush": {
        "en": "[name] says: I'm in!"
      },
      "defaultReplyCheersButton": {
        "en": "🙋‍♂️ I'm in!"
      },
      "defaultReplyStayPush": {
        "en": "[name] says: 🙋‍♂️ When and where"
      },
      "defaultReplyStayButton": {
        "en": "🙋‍♂️ When and where?"
      }  }
    ,
    {
      "id": 18,
      "category": "live",
      "sendPush": true,
      "dateable": true,
      
      "displayName": {
        "en": "Soccer"
      },
      "verb": {
        "en": "wanna"
      },
      "pushText": {
        "en": "💬 [name] says: Wanna Play Soccer?"
      },
      "customActivityOmitsVerb": false,
      "analyticName": "soccer",
      "imageName": "live/soccer",
      "emoji":  "⚽",
      "defaultReplyCheersPush": {
        "en": "[name] says: I'm in!"
      },
      "defaultReplyCheersButton": {
        "en": "🙋‍♂️ I'm in!"
      },
      "defaultReplyStayPush": {
        "en": "[name] says: 🙋‍♂️ When and where"
      },
      "defaultReplyStayButton": {
        "en": "🙋‍♂️ When and where?"
      }  },
    {
      "id": 19,
      "category": "live",
      "sendPush": true,
      "dateable": true,
      
      "displayName": {
        "en": "Basketball"
      },
      "verb": {
        "en": "wanna"
      },
      "pushText": {
        "en": "💬 [name] says: Wanna PLay Basketball?"
      },
      "customActivityOmitsVerb": false,
      "analyticName": "basketball",
      "imageName": "live/basketball",
      "emoji":  "🏀",
      "defaultReplyCheersPush": {
        "en": "[name] says: I'm in!"
      },
      "defaultReplyCheersButton": {
        "en": "🙋‍♂️ I'm in!"
      },
      "defaultReplyStayPush": {
        "en": "[name] says: 🙋‍♂️ When and where"
      },
      "defaultReplyStayButton": {
        "en": "🙋‍♂️ When and where?"
      }  },
    {
      "id": 20,
      "category": "live",
      "sendPush": true,
      "dateable": true,
      
      "displayName": {
        "en": "Volleyball"
      },
      "verb": {
        "en": "wanna"
      },
      "pushText": {
        "en": "💬 [name] says: Wanna Play Volleyball?"
      },
      "customActivityOmitsVerb": false,
      "analyticName": "volleyball",
      "imageName": "live/volleyball",
      "emoji":  "🏐",
      "defaultReplyCheersPush": {
        "en": "[name] says: I'm in!"
      },
      "defaultReplyCheersButton": {
        "en": "🙋‍♂️ I'm in!"
      },
      "defaultReplyStayPush": {
        "en": "[name] says: 🙋‍♂️ When and where"
      },
      "defaultReplyStayButton": {
        "en": "🙋‍♂️ When and where?"
      }  }
    ,
    {
      "id": 21,
      "sendPush": true,
      "dateable": true,
      "category": "live",

      "displayName": {
        "en": "Bowling"
      },
      "verb": {
        "en": "wanna"
      },
      "pushText": {
        "en": "💬 [name] says: Wanna Bowling?"
      },
      "customActivityOmitsVerb": false,
      "analyticName": "bowling",
      "imageName": "live/bowling",
      "emoji":  "🎳",
      "defaultReplyCheersPush": {
        "en": "[name] says: I'm in!"
      },
      "defaultReplyCheersButton": {
        "en": "🙋‍♂️ I'm in!"
      },
      "defaultReplyStayPush": {
        "en": "[name] says: 🙋‍♂️ When and where"
      },
      "defaultReplyStayButton": {
        "en": "🙋‍♂️ When and where?"
      }  },
    {
      "id": 22,
      "category": "live",
      "sendPush": true,
      "dateable": true,
      
      "displayName": {
        "en": "Tablesoccer"
      },
      "verb": {
        "en": "wanna"
      },
      "pushText": {
        "en": "💬 [name] says: Wanna Play Table Soccer?"
      },
      "customActivityOmitsVerb": false,
      "analyticName": "tablesoccer",
      "imageName": "live/tablesoccer",
      "emoji":  "🥅",
      "defaultReplyCheersPush": {
        "en": "[name] says: I'm in!"
      },
      "defaultReplyCheersButton": {
        "en": "🙋‍♂️ I'm in!"
      },
      "defaultReplyStayPush": {
        "en": "[name] says: 🙋‍♂️ When and where"
      },
      "defaultReplyStayButton": {
        "en": "🙋‍♂️ When and where?"
      }  },
    
    {
      "id": 23,
      "category": "live",
      "sendPush": true,
      "dateable": true,
      
      "displayName": {
        "en": "Poker"
      },
      "verb": {
        "en": "wanna"
      },
      "pushText": {
        "en": "💬 [name] says: Wanna Poker?"
      },
      "customActivityOmitsVerb": false,
      "analyticName": "poker",
      "imageName": "live/poker",
      "emoji":  "🃏",
      "defaultReplyCheersPush": {
        "en": "[name] says: I'm in!"
      },
      "defaultReplyCheersButton": {
        "en": "🙋‍♂️ I'm in!"
      },
      "defaultReplyStayPush": {
        "en": "[name] says: 🙋‍♂️ When and where"
      },
      "defaultReplyStayButton": {
        "en": "🙋‍♂️ When and where?"
      }  },
    {
      "id": 31,
      "sendPush": true,
      "dateable": true,
      
      "displayName": {
        "en": "Open For Suggestions"
      },
      "verb": {
        "en": "wanna"
      },
      "pushText": {
        "en": "💬 [name] says: Wanna Do Something?"
      },
      "customActivityOmitsVerb": false,
      "analyticName": "suggestions",
      "imageName": "objects/light-bulb",
      "emoji":  "💡",
      "defaultReplyCheersPush": {
        "en": "[name] says: I'm in!"
      },
      "defaultReplyCheersButton": {
        "en": "🙋‍♂️ I'm in!"
      },
      "defaultReplyStayPush": {
        "en": "[name] says: 🙋‍♂️ When and where"
      },
      "defaultReplyStayButton": {
        "en": "🙋‍♂️ When and where?"
      }  },
    {
      "id": 32,
      "category": "planning",
      "sendPush": true,
      "dateable": true,
      
      "displayName": {
        "en": "Culture"
      },
      "verb": {
        "en": "wanna"
      },
      "pushText": {
        "en": "💬 [name] says: Wanna Culture?"
      },
      "customActivityOmitsVerb": false,
      "analyticName": "culture",
      "imageName": "activity/performing-arts",
      "emoji":  "🎭",
      "defaultReplyCheersPush": {
        "en": "[name] says: I'm in!"
      },
      "defaultReplyCheersButton": {
        "en": "🙋‍♂️ I'm in!"
      },
      "defaultReplyStayPush": {
        "en": "[name] says: 🙋‍♂️ When and where"
      },
      "defaultReplyStayButton": {
        "en": "🙋‍♂️ When and where?"
      }  },
    {
      "id": 33,
      "category": "planning",
      "sendPush": true,
      "dateable": true,
      
      "displayName": {
        "en": "Entertainment"
      },
      "verb": {
        "en": "wanna"
      },
      "pushText": {
        "en": "💬 [name] says: Wanna Entertainment?"
      },
      "customActivityOmitsVerb": false,
      "analyticName": "entertainment",
      "imageName": "activity/circus-tent",
      "emoji":  "🎪",
      "defaultReplyCheersPush": {
        "en": "[name] says: I'm in!"
      },
      "defaultReplyCheersButton": {
        "en": "🙋‍♂️ I'm in!"
      },
      "defaultReplyStayPush": {
        "en": "[name] says: 🙋‍♂️ When and where"
      },
      "defaultReplyStayButton": {
        "en": "🙋‍♂️ When and where?"
      }  },
    
    {
      "id": 221,
      "category": "planning",
      "sendPush": true,
      "dateable": true,
      
      "displayName": {
        "en": "Wellness"
      },
      "verb": {
        "en": "wanna"
      },
      "pushText": {
        "en": "💬 [name] says: Wanna Wellness?"
      },
      "customActivityOmitsVerb": false,
      "analyticName": "wellness",
      "imageName": "objects/bathtub",
      "emoji":  "🛀",
      "defaultReplyCheersPush": {
        "en": "[name] says: I'm in!"
      },
      "defaultReplyCheersButton": {
        "en": "🙋‍♂️ I'm in!"
      },
      "defaultReplyStayPush": {
        "en": "[name] says: 🙋‍♂️ When and where"
      },
      "defaultReplyStayButton": {
        "en": "🙋‍♂️ When and where?"
      }  },
    
    {
      "id": 222,
      "category": "planning",
      "sendPush": true,
      "dateable": true,
      
      "displayName": {
        "en": "Concert"
      },
      "verb": {
        "en": "wanna"
      },
      "pushText": {
        "en": "💬 [name] says: Wanna Concert?"
      },
      "customActivityOmitsVerb": false,
      "analyticName": "concert",
      "imageName": "activity/microphone",
      "emoji":  "🎤",
      "defaultReplyCheersPush": {
        "en": "[name] says: I'm in!"
      },
      "defaultReplyCheersButton": {
        "en": "🙋‍♂️ I'm in!"
      },
      "defaultReplyStayPush": {
        "en": "[name] says: 🙋‍♂️ When and where"
      },
      "defaultReplyStayButton": {
        "en": "🙋‍♂️ When and where?"
      }  },
    {
      "id": 223,
      "category": "planning",
      "sendPush": true,
      "dateable": true,
      
      "displayName": {
        "en": "Flea Market"
      },
      "verb": {
        "en": "wanna"
      },
      "pushText": {
        "en": "💬 [name] says: Wanna Flea Market?"
      },
      "customActivityOmitsVerb": false,
      "analyticName": "fleamarket",
      "imageName": "objects/teddy-bear",
      "emoji":  "🧸",
      "defaultReplyCheersPush": {
        "en": "[name] says: I'm in!"
      },
      "defaultReplyCheersButton": {
        "en": "🙋‍♂️ I'm in!"
      },
      "defaultReplyStayPush": {
        "en": "[name] says: 🙋‍♂️ When and where"
      },
      "defaultReplyStayButton": {
        "en": "🙋‍♂️ When and where?"
      }  },

    {
      "id": 34,
      "category": "planning",
      "sendPush": true,
      "dateable": true,
      
      "displayName": {
        "en": "Cinema"
      },
      "verb": {
        "en": "wanna"
      },
      "pushText": {
        "en": "💬 [name] says: Wanna Cinema?"
      },
      "customActivityOmitsVerb": false,
      "analyticName": "cinema",
      "imageName": "objects/movie-camera",
      "emoji":  "🎥",
      "defaultReplyCheersPush": {
        "en": "[name] says: I'm in!"
      },
      "defaultReplyCheersButton": {
        "en": "🙋‍♂️ I'm in!"
      },
      "defaultReplyStayPush": {
        "en": "[name] says: 🙋‍♂️ When and where"
      },
      "defaultReplyStayButton": {
        "en": "🙋‍♂️ When and where?"
      }  },
    {
      "id": 35,
      "category": "planning",
      "sendPush": true,
      "dateable": true,
      
      "displayName": {
        "en": "Netflix & Chill"
      },
      "verb": {
        "en": "wanna"
      },
      "pushText": {
        "en": "💬 [name] says: Wanna Netflix & Chill?"
      },
      "customActivityOmitsVerb": false,
      "analyticName": "netflix",
      "imageName": "objects/film-frames",
      "emoji":  "🎞️",
      "defaultReplyCheersPush": {
        "en": "[name] says: I'm in!"
      },
      "defaultReplyCheersButton": {
        "en": "🙋‍♂️ I'm in!"
      },
      "defaultReplyStayPush": {
        "en": "[name] says: 🙋‍♂️ When and where"
      },
      "defaultReplyStayButton": {
        "en": "🙋‍♂️ When and where?"
      }  },
    {
      "id": 36,
      "category": "planning",
      "sendPush": true,
      "dateable": true,
      
      "displayName": {
        "en": "Study"
      },
      "verb": {
        "en": "wanna"
      },
      "pushText": {
        "en": "💬 [name] says: Wanna Study?"
      },
      "customActivityOmitsVerb": false,
      "analyticName": "study",
      "imageName": "objects/books",
      "emoji":  "📚",
      "defaultReplyCheersPush": {
        "en": "[name] says: I'm in!"
      },
      "defaultReplyCheersButton": {
        "en": "🙋‍♂️ I'm in!"
      },
      "defaultReplyStayPush": {
        "en": "[name] says: 🙋‍♂️ When and where"
      },
      "defaultReplyStayButton": {
        "en": "🙋‍♂️ When and where?"
      }  },
    {
      "id": 37,
      "category": "planning",
      "sendPush": true,
      "dateable": true,
      
      "displayName": {
        "en": "Video Games"
      },
      "verb": {
        "en": "wanna"
      },
      "pushText": {
        "en": "💬 [name] says: Wanna Video Games?"
      },
      "customActivityOmitsVerb": false,
      "analyticName": "videogames",
      "imageName": "objects/joystick",
      "emoji":  "🕹️",
      "defaultReplyCheersPush": {
        "en": "[name] says: I'm in!"
      },
      "defaultReplyCheersButton": {
        "en": "🙋‍♂️ I'm in!"
      },
      "defaultReplyStayPush": {
        "en": "[name] says: 🙋‍♂️ When and where"
      },
      "defaultReplyStayButton": {
        "en": "🙋‍♂️ When and where?"
      }  }
    
    ,
    {
      "id": 38,
      "category": "planning",
      "sendPush": true,
      "dateable": true,
      
      "displayName": {
        "en": "Phone"
      },
      "verb": {
        "en": "wanna"
      },
      "pushText": {
        "en": "💬 [name] says: Wanna Phone?"
      },
      "customActivityOmitsVerb": false,
      "analyticName": "phone",
      "imageName": "objects/telephone-receiver",
      "emoji":  "📞",
      "defaultReplyCheersPush": {
        "en": "[name] says: I'm in!"
      },
      "defaultReplyCheersButton": {
        "en": "🙋‍♂️ I'm in!"
      },
      "defaultReplyStayPush": {
        "en": "[name] says: 🙋‍♂️ When and where"
      },
      "defaultReplyStayButton": {
        "en": "🙋‍♂️ When and where?"
      }  }
    ,
    {
      "id": 39,
      "category": "planning",
      "sendPush": true,
      "dateable": true,
      
      "displayName": {
        "en": "Watch TV"
      },
      "verb": {
        "en": "wanna"
      },
      "pushText": {
        "en": "💬 [name] says: Wanna Watch TV?"
      },
      "customActivityOmitsVerb": false,
      "analyticName": "watchtv",
      "imageName": "objects/television",
      "emoji":  "📺",
      "defaultReplyCheersPush": {
        "en": "[name] says: I'm in!"
      },
      "defaultReplyCheersButton": {
        "en": "🙋‍♂️ I'm in!"
      },
      "defaultReplyStayPush": {
        "en": "[name] says: 🙋‍♂️ When and where"
      },
      "defaultReplyStayButton": {
        "en": "🙋‍♂️ When and where?"
      }  },
    {
      "id": 40,
      "category": "planning",
      "sendPush": true,
      "dateable": true,
      
      "displayName": {
        "en": "Shopping"
      },
      "verb": {
        "en": "wanna"
      },
      "pushText": {
        "en": "💬 [name] says: Wanna Shopping?"
      },
      "customActivityOmitsVerb": false,
      "analyticName": "shopping",
      "imageName": "objects/shopping-bags",
      "emoji":  "🛍️",
      "defaultReplyCheersPush": {
        "en": "[name] says: I'm in!"
      },
      "defaultReplyCheersButton": {
        "en": "🙋‍♂️ I'm in!"
      },
      "defaultReplyStayPush": {
        "en": "[name] says: 🙋‍♂️ When and where"
      },
      "defaultReplyStayButton": {
        "en": "🙋‍♂️ When and where?"
      }  }
    ,
    {
      "id": 41,
      "category": "planning",
      "sendPush": true,
      "dateable": true,
      
      "displayName": {
        "en": "Surprise"
      },
      "verb": {
        "en": "wanna"
      },
      "pushText": {
        "en": "💬 [name] says: Wanna Surprise?"
      },
      "customActivityOmitsVerb": false,
      "analyticName": "surprise",
      "imageName": "objects/wrapped-gift",
      "emoji":  "🎁",
      "defaultReplyCheersPush": {
        "en": "[name] says: I'm in!"
      },
      "defaultReplyCheersButton": {
        "en": "🙋‍♂️ I'm in!"
      },
      "defaultReplyStayPush": {
        "en": "[name] says: 🙋‍♂️ When and where"
      },
      "defaultReplyStayButton": {
        "en": "🙋‍♂️ When and where?"
      }  }
    ,
    {
      "id": 42,
      "category": "planning",
      "sendPush": true,
      "dateable": true,
      
      "displayName": {
        "en": "Travel"
      },
      "verb": {
        "en": "wanna"
      },
      "pushText": {
        "en": "💬 [name] says: Wanna Travel?"
      },
      "customActivityOmitsVerb": false,
      "analyticName": "travel",
      "imageName": "travel/airplane",
      "emoji":  "✈️",
      "defaultReplyCheersPush": {
        "en": "[name] says: I'm in!"
      },
      "defaultReplyCheersButton": {
        "en": "🙋‍♂️ I'm in!"
      },
      "defaultReplyStayPush": {
        "en": "[name] says: 🙋‍♂️ When and where"
      },
      "defaultReplyStayButton": {
        "en": "🙋‍♂️ When and where?"
      }  },
    {
      "id": 43,
      "category": "planning",
      "sendPush": true,
      "dateable": true,
      
      "displayName": {
        "en": "Road Trip"
      },
      "verb": {
        "en": "wanna"
      },
      "pushText": {
        "en": "💬 [name] says: Wanna Road Trip?"
      },
      "customActivityOmitsVerb": false,
      "analyticName": "roadtri",
      "imageName": "travel/motorway",
      "emoji":  "🛣️",
      "defaultReplyCheersPush": {
        "en": "[name] says: I'm in!"
      },
      "defaultReplyCheersButton": {
        "en": "🙋‍♂️ I'm in!"
      },
      "defaultReplyStayPush": {
        "en": "[name] says: 🙋‍♂️ When and where"
      },
      "defaultReplyStayButton": {
        "en": "🙋‍♂️ When and where?"
      }  }
    ,
    {
      "id": 44,
      "category": "planning",
      "sendPush": true,
      "dateable": true,
      
      "displayName": {
        "en": "Discover The Night"
      },
      "verb": {
        "en": "wanna"
      },
      "pushText": {
        "en": "💬 [name] says: Wanna Discover The Night?"
      },
      "customActivityOmitsVerb": false,
      "analyticName": "discovernight",
      "imageName": "travel/night-with-stars",
      "emoji":  "🌃",
      "defaultReplyCheersPush": {
        "en": "[name] says: I'm in!"
      },
      "defaultReplyCheersButton": {
        "en": "🙋‍♂️ I'm in!"
      },
      "defaultReplyStayPush": {
        "en": "[name] says: 🙋‍♂️ When and where"
      },
      "defaultReplyStayButton": {
        "en": "🙋‍♂️ When and where?"
      }  }
    ,
    {
      "id": 45,
      "category": "planning",
      "sendPush": true,
      "dateable": true,
      
      "displayName": {
        "en": "Go To The Stadium"
      },
      "verb": {
        "en": "wanna"
      },
      "pushText": {
        "en": "💬 [name] says: Wanna Go To The Stadium?"
      },
      "customActivityOmitsVerb": false,
      "analyticName": "stadium",
      "imageName": "travel/stadium",
      "emoji":  "🏟️",
      "defaultReplyCheersPush": {
        "en": "[name] says: I'm in!"
      },
      "defaultReplyCheersButton": {
        "en": "🙋‍♂️ I'm in!"
      },
      "defaultReplyStayPush": {
        "en": "[name] says: 🙋‍♂️ When and where"
      },
      "defaultReplyStayButton": {
        "en": "🙋‍♂️ When and where?"
      }  },
    {
      "id": 46,
      "category": "planning",
      "sendPush": true,
      "dateable": true,
      
      "displayName": {
        "en": "Explore The City"
      },
      "verb": {
        "en": "wanna"
      },
      "pushText": {
        "en": "💬 [name] says: Wanna Explore The City?"
      },
      "customActivityOmitsVerb": false,
      "analyticName": "explorecity",
      "imageName": "travel/statue-of-liberty",
      "emoji":  "🗽",
      "defaultReplyCheersPush": {
        "en": "[name] says: I'm in!"
      },
      "defaultReplyCheersButton": {
        "en": "🙋‍♂️ I'm in!"
      },
      "defaultReplyStayPush": {
        "en": "[name] says: 🙋‍♂️ When and where"
      },
      "defaultReplyStayButton": {
        "en": "🙋‍♂️ When and where?"
      }  }
    ,
    {
      "id": 47,
      "category": "planning",
      "sendPush": true,
      "dateable": true,
      
      "displayName": {
        "en": "Marry"
      },
      "verb": {
        "en": "wanna"
      },
      "pushText": {
        "en": "💬 [name] says: Wanna Marry?"
      },
      "customActivityOmitsVerb": false,
      "analyticName": "marry",
      "imageName": "travel/wedding",
      "emoji":  "💒",
      "defaultReplyCheersPush": {
        "en": "[name] says: I'm in!"
      },
      "defaultReplyCheersButton": {
        "en": "🙋‍♂️ I'm in!"
      },
      "defaultReplyStayPush": {
        "en": "[name] says: 🙋‍♂️ When and where"
      },
      "defaultReplyStayButton": {
        "en": "🙋‍♂️ When and where?"
      }  }    ,
    {
      "id": 48,
      "category": "planning",
      "sendPush": true,
      "dateable": true,
      
      "displayName": {
        "en": "Watch The Sunset"
      },
      "verb": {
        "en": "wanna"
      },
      "pushText": {
        "en": "💬 [name] says: Wanna Watch The Sunset?"
      },
      "customActivityOmitsVerb": false,
      "analyticName": "sunset",
      "imageName": "travel/sunset",
      "emoji":  "🌇",
      "defaultReplyCheersPush": {
        "en": "[name] says: I'm in!"
      },
      "defaultReplyCheersButton": {
        "en": "🙋‍♂️ I'm in!"
      },
      "defaultReplyStayPush": {
        "en": "[name] says: 🙋‍♂️ When and where"
      },
      "defaultReplyStayButton": {
        "en": "🙋‍♂️ When and where?"
      }  },
    {
      "id": 49,
      "category": "planning",
      "sendPush": true,
      "dateable": true,
      
      "displayName": {
        "en": "Watch The Sunrise"
      },
      "verb": {
        "en": "wanna"
      },
      "pushText": {
        "en": "💬 [name] says: Wanna Watch The Sunrise?"
      },
      "customActivityOmitsVerb": false,
      "analyticName": "sunrise",
      "imageName": "travel/sunrise",
      "emoji":  "🌄",
      "defaultReplyCheersPush": {
        "en": "[name] says: I'm in!"
      },
      "defaultReplyCheersButton": {
        "en": "🙋‍♂️ I'm in!"
      },
      "defaultReplyStayPush": {
        "en": "[name] says: 🙋‍♂️ When and where"
      },
      "defaultReplyStayButton": {
        "en": "🙋‍♂️ When and where?"
      }  }
    
    ,
    {
      "id": 50,
      "category": "planning",
      "sendPush": true,
      "dateable": true,
      
      "displayName": {
        "en": "Cruise"
      },
      "verb": {
        "en": "wanna"
      },
      "pushText": {
        "en": "💬 [name] says: Wanna Cruise?"
      },
      "customActivityOmitsVerb": false,
      "analyticName": "cruise",
      "imageName": "travel/oncoming-automobile",
      "emoji":  "🚘",
      "defaultReplyCheersPush": {
        "en": "[name] says: I'm in!"
      },
      "defaultReplyCheersButton": {
        "en": "🙋‍♂️ I'm in!"
      },
      "defaultReplyStayPush": {
        "en": "[name] says: 🙋‍♂️ When and where"
      },
      "defaultReplyStayButton": {
        "en": "🙋‍♂️ When and where?"
      }  }
    
    
    

    




    
    
    
  ]
}
