{
  "target": "shareSheet",
  "campaign": "branch_share_forcenonsnapchat",
  "alertTitle": {
    "en": "How many friends wanna hangout with you?"
  },
  "alertMessage": {
    "en": "Add your friends by sharing your exclusive link."
  },
  "alertCta": {
    "en": "Ok"
  },
  "alertClose": {
    "en": "Later"
  },
  "shareText": {
    "en": "wanna hang out with [username]? [username] invites you to the app wanna: [link]"
  },
  "ogTitle": {
    "en": "➡️ Click here if you are a buddy of [username]!"
  },
  "ogDescription": {
    "en": "I want to add you wanna. A new app that notifies each other when one of us wanna hang out."
  },
  "branchTitle": {
    "en": "Do you accept my friendship request?"
  },
  "branchDesc ": {
    "en": "Get wanna to accept this friend request."
  },
  "branchCta": {
    "en": "Accept Request"
  },
  "htmlTitle": {
    "en": "➡️ Click Here If You Wanna Hang Out With Me!"
  },
  "ogImage": "https://firebasestorage.googleapis.com/v0/b/wanna-1.appspot.com/o/icon%2Fwanna%20yellow%20w4-final.png?alt=media&token=7a9ffe6c-8321-49f1-95c6-a29c9034ead9"
}