{
  "type": "fullscreen",
  "campaign": "branch_overall_A",
  "message": {
    "se": "Beer Buddy är en social app för att meddela dina vänner när du dricker så att de kan delta.",
    "no": "Beer Buddy er en sosial app for å varsle vennene dine når du drikker, slik at de kan bli med.",
    "fi": "Beer Buddy on sosiaalinen sovellus, joka ilmoittaa ystävillesi juomisesta, jotta he voivat liittyä mukaan.",
    "es": "Beer Buddy es una aplicación social para notificar a tus amigos cuando estás bebiendo para que puedan unirse.",
    "de": "Beer Buddy ist eine soziale Anwendung, mit der du deine Freunde benachrichtigen kannst, wenn du trinkst, damit sie sich anschließen können.",
    "pt": "Beer Buddy é uma aplicação social para notificar seus amigos quando você estiver bebendo para que eles possam participar.",
    "it": "Beer Buddy è un'applicazione sociale per avvisare i tuoi amici quando bevi, in modo che possano partecipare.",
    "fr": "Beer Buddy est une application sociale qui permet de prévenir tes amis lorsque tu bois afin qu'ils puissent te rejoindre.",
    "nl": "Bier Buddy is een sociale toepassing om je vrienden op de hoogte te brengen wanneer je drinkt, zodat ze mee kunnen doen.",
    "pl": "Beer Buddy to aplikacja społecznościowa, która pozwala powiadomić Twoich przyjaciół, kiedy pijesz, aby mogli się przyłączyć.",
    "en": "Beer Buddy is a social application to notify your friends when you are drinking so that they can join."
  },
  "cta": {
    "se": "Är du min dricka kompis? Klicka här:",
    "no": "Er du min drikkekamerat? Klikk her:",
    "fi": "Oletko juomakaverini? Klikkaa tästä:",
    "es": "¿Eres mi compañero de copas? Haz clic aquí:",
    "de": "Bist du mein Saufkumpan? Klick hier:",
    "pt": "Você é meu companheiro de bebedeiras? Clique aqui:",
    "it": "Sei il mio compagno di bevute? Clicca qui:",
    "fr": "Es-tu mon compagnon de beuverie ? Clique ici :",
    "nl": "Ben jij mijn drinkende vriend? Klik dan hier:",
    "pl": "Jesteś moim kumplem od picia? Kliknij tutaj:",
    "en": "Are You My Drinking Buddy? Click Here:"
  },
  "alertTitle": {
    "en": "How many drinking buddies do you have?",
    "de": "Wieviele Trinkkumpanen hast du?",
    "nl": "Hoeveel drinkvrienden heb je?",
    "fr": "Combien de copains de beuverie avez-vous ?",
    "pt": "Quantos amigos de bebidas tem?",
    "es": "¿Cuántos compañeros de copas tienes?",
    "it": "Quanti compagni di bevute hai?",
    "no": "Hvor mange drikke-buddies har du?",
    "fi": "Kuinka monta juomakaveria sinulla on?",
    "se": "Hur många dryckeskompisar har du?",
    "pl": "Ilu znajomych do picia posiadasz?"
  },
  "alertMessage": {
    "en": "Invite your snapchat friends, by sharing a snapchat story.",
    "de": "Lade deine Freunde auf Snapchat ein, indem du eine Snapchat-Story teilst.",
    "nl": "Nodig je Snapchat-vrienden uit, door een Snapchat-story te delen.",
    "fr": "Invitez vos amis Snapchat en partageant une Snapchat-story.",
    "pt": "Convide os seus amigos de snapchat, ao partilhar uma snapchat-story.",
    "es": "Invita a tus amigos de Snapchat compartiendo una Snapchat-story.",
    "it": "Invita i tuoi amici di snapchat condividendo una storia.",
    "no": "Inviter snapchat-vennene dine ved å dele en snapchat story",
    "fi": "Kutsu snapchat-ystäviäsi jakamalla snapchat-tarina.",
    "se": "Bjud in dina Snapchat-vänner genom att dela en Snapchat-berättelse.",
    "pl": "Zaproś znajomych ze Snapchata, udostępniając historię w tej aplikacji."
  },
  "alertCta": {
    "en": "Ok"
  },
  "alertClose": {
    "en": "Later",
    "de": "Später",
    "nl": "Later",
    "fr": "Plus tard",
    "pt": "Depois",
    "es": "Luego",
    "it": "Più tardi",
    "no": "Senere",
    "fi": "Myöhemmin",
    "se": "Senare",
    "pl": "Później"
  },
  "activityImageName": "[activity]",
  "avatarImageName": "[avatar]",
  "backgroundColor": "#000000ff",
  "messageColor": "#ffffffff",
  "arrowColor": "#ffffffff",
  "ctaColor": "#ffffffff",
  "selfieLabel": "profile_sayhi",
  "ogTitle": {
    "en": "➡️ Click Here AGAIN If You Are My Drinking Buddy!",
    "de": "➡️ Klicke Hier NOCHMAL Wenn Du Mein Saufkumpane Bist!",
    "nl": "➡️ Klik hier als je mijn drinkende vriend bent!",
    "fr": "➡️ Clique ici si tu es mon compagnon de beuverie !",
    "pt": "➡️ Clica Aqui Se És o Meu Amigo Bebedor!",
    "es": "➡️ Haz clic aquí si eres mi compañero de copas!",
    "it": "➡️ Clicca qui se sei il mio compagno di bevute!",
    "no": "➡️ Klikk her hvis du er min drikkekamerat!",
    "fi": "➡️ Napsauta tätä, jos olet juomakaverini!",
    "se": "➡️ Klicka här om du är min drickande kompis!",
    "pl": "➡️ Kliknij tutaj, jeśli jesteś moim pijącym kumplem!"
  },
  "ogDescription": {
    "en": ""
  },
  "branchTitle": {
    "en": "Click Here If You Are My Drinking Buddy!",
    "de": "Klicke Hier Wenn Du Mein Saufkumpane Bist!",
    "nl": "Klik hier als je mijn drinkende vriend bent!",
    "fr": "Clique ici si tu es mon compagnon de beuverie !",
    "pt": "Clica Aqui Se És o Meu Amigo Bebedor!",
    "es": "Haz clic aquí si eres mi compañero de copas!",
    "it": "Clicca qui se sei il mio compagno di bevute!",
    "no": "Klikk her hvis du er min drikkekamerat!",
    "fi": "Napsauta tätä, jos olet juomakaverini!",
    "se": "Klicka här om du är min drickande kompis!",
    "pl": "Kliknij tutaj, jeśli jesteś moim pijącym kumplem!"
  },
  "branchDesc": {
    "en": "Get the new Beer Buddy App now.",
    "de": "Hol dir jetzt auch die neue Beer Buddy App.",
    "nl": "Haal nu de nieuwe Beer Buddy App!",
    "fr": "Prends la nouvelle application Beer Buddy maintenant !",
    "pt": "Compra o novo Beer Buddy App agora!",
    "es": "Consigue la nueva aplicación Beer Buddy ahora!",
    "it": "Prendi la nuova Beer Buddy App ora!",
    "no": "Få den nye Beer Buddy-appen nå!",
    "fi": "Hanki uusi Beer Buddy -sovellus nyt!",
    "se": "Skaffa den nya Beer Buddy-appen nu!",
    "pl": "Pobierz nową aplikację Beer Buddy App teraz!"
  },
  "branchCta": {
    "en": "Accept Request",
    "de": "Anfrage annehmen",
    "nl": "Accepteer verzoek",
    "fr": "Accepter la demande",
    "pt": "Aceitar Pedido",
    "es": "Aceptar la solicitud",
    "it": "Accetta la richiesta",
    "no": "Aksepter forespørsel",
    "fi": "Hyväksy pyyntö",
    "se": "Acceptera förfrågan",
    "pl": "Zaakceptuj wniosek"
  },
  "htmlTitle": {
    "en": "Add me as friend at Beer Buddy",
    "de": "Füge mich als Freund bei Beer Buddy hinzu",
    "nl": "Voeg mij toe als vriend bij Beer Buddy",
    "fr": "Ajoutez-moi comme ami à Beer Buddy",
    "pt": "Adiciona-me como amigo no Beer Buddy",
    "es": "Añádeme como amigo en Beer Buddy",
    "it": "Aggiungimi come amico al Beer Buddy",
    "no": "Legg meg til som venn hos Beer Buddy",
    "fi": "Lisää minut ystäväksi Beer Buddyö",
    "se": "Lägg till mig som vän på Beer Buddy",
    "pl": "Dodaj mnie jako przyjaciela w Beer Buddy"
  },
  "versionTwo": {
    "width": 360,
    "height": 640,
    "backgroundImageUrl": "https://firebasestorage.googleapis.com/v0/b/beer-buddy-6323b.appspot.com/o/ui%2Fbeerbg-ma4%20(1).png?alt=media&token=aed8df5b-175d-4e71-bf1b-34817a1c6b40",
    "profileImageBounds": [
      [
        90,
        1
      ],
      [
        180,
        180
      ]
    ],
    "messageLabelBounds": [
      [
        51,
        212
      ],
      [
        250,
        156
      ]
    ],
    "ctaLabelBounds": [
      [
        26,
        420
      ],
      [
        309,
        54
      ]
    ]
  }
}